--
-- PostgreSQL database dump
--

SET statement_timeout = 0;
SET client_encoding = 'UTF8';
SET standard_conforming_strings = on;
SET check_function_bodies = false;
SET client_min_messages = warning;

--
-- Name: plpgsql; Type: EXTENSION; Schema: -; Owner: 
--

CREATE EXTENSION IF NOT EXISTS plpgsql WITH SCHEMA pg_catalog;


--
-- Name: EXTENSION plpgsql; Type: COMMENT; Schema: -; Owner: 
--

COMMENT ON EXTENSION plpgsql IS 'PL/pgSQL procedural language';


SET search_path = public, pg_catalog;

--
-- Name: cleanallsimprocdb(); Type: FUNCTION; Schema: public; Owner: ekergy
--

CREATE FUNCTION cleanallsimprocdb() RETURNS integer
    LANGUAGE plpgsql
    AS $$
DECLARE 	i 		integer;
		j 		integer:=0; 
		r_procedure	record;		 		
		r_process	record;		 		
		r_tree 		record;		 			
BEGIN
/*  pld_procedure esta llamando a borrar los procedimientos*/

FOR r_process in select * from tspr_procedure  LOOP  

	raise NOTICE  '(Deleting SIMPROC procedures ... %, )', r_process.procedure_cod ;		
	select into i  pl_delallprocedure(r_process.procedure_id);
	if i = 0 then 
		raise EXCEPTION '( Error Deleting SIMPROC Name: %  )',  r_process.procedure_cod ;
		return 0;  
	end if; 
	j:=j+1; 
END LOOP;

delete from tspr_restart_monitors;
delete from tspr_restart_params;
delete from tspr_restart_state;
delete from tspr_restart_params;
delete from tspr_simproc_tree;
delete from tspr_simproc_state;
delete from tspr_simproc_proc;

--retunr number of objects deleted 
return j; 

END;$$;


ALTER FUNCTION public.cleanallsimprocdb() OWNER TO ekergy;

--
-- Name: FUNCTION cleanallsimprocdb(); Type: COMMENT; Schema: public; Owner: ekergy
--

COMMENT ON FUNCTION cleanallsimprocdb() IS 'Util Function used to clean all SIMPROC procedures';


--
-- Name: pl_add_mcw_var(integer, character varying); Type: FUNCTION; Schema: public; Owner: ekergy
--

CREATE FUNCTION pl_add_mcw_var(integer, character varying) RETURNS integer
    LANGUAGE plpgsql
    AS $_$  
DECLARE 	
/*! Aliases for input variables */
		i_mcw		ALIAS FOR $1;	
		a_var_code	ALIAS FOR $2;							
/*! Temporal Internal Variables for function issues	*/
		
		i_var_id      	integer;				
		r_mcw		record;		
		a_var varchar ;
				
BEGIN

a_var := upper(trim(a_var_code)); 

-- Check that mcw id exists.	
select into r_mcw * from tspr_mcw where mcw_id  = i_mcw; 

IF NOT FOUND THEN
	raise EXCEPTION '( MCW Id % does not exist. )', i_mcw ; 	
 	return 0;  		
else
	--obtenemos la variale asociada, si existe sino la creamos. 
	select into i_var_id pl_addvariable (r_mcw.item_id, a_var_code);  

	insert into tspr_mcw_var (mcw_id, var_spr_id) values (i_mcw, i_var_id); 
	
		--function return varuiable identify
	return i_var_id; 

END IF;
END; $_$;


ALTER FUNCTION public.pl_add_mcw_var(integer, character varying) OWNER TO ekergy;

--
-- Name: pl_addinstructiondef(integer, character varying, character varying, integer, integer, character varying, integer, integer); Type: FUNCTION; Schema: public; Owner: ekergy
--

CREATE FUNCTION pl_addinstructiondef(integer, character varying, character varying, integer, integer, character varying, integer, integer) RETURNS integer
    LANGUAGE plpgsql
    AS $_$
  
  /**********************	DECLARE SECTION			****************
******************************************************************************************/
DECLARE 	
/*! Aliases for input variables */
		i_step		ALIAS FOR $1;	
		a_code		ALIAS FOR $2;	
		a_desc		ALIAS FOR $3;
		i_fcont		ALIAS FOR $4;
		i_index		ALIAS FOR $5; 
		a_comm		ALIAS FOR $6; 
		i_texec		ALIAS FOR $7;
		i_tload		ALIAS FOR $8;
		
/*! Temporal Internal Variables for function issues	*/		
		i_inst		int4;
		r_tmp           record;		
		
/**********************	BEGIN FUCNTION *****************/ 
BEGIN
-- Checks that the step id already exists. 
SELECT INTO r_tmp * FROM tspr_step WHERE step_id = i_step; 
IF NOT FOUND THEN
	RAISE EXCEPTION '(Step id % does not exist. )', i_step;
 	RETURN 0;  		

ELSE
	-- Creates a new registry into database 
	SELECT NEXTVAL('sq_instruction') INTO i_inst;
	--Inserts the instruction definition
	INSERT INTO tspr_instruction(instruction_id, instruction_cod, continuous_action_flag,instruction_desc, step_id, "index", "comment", task_load, task_time)
	VALUES(i_inst,a_code,i_fcont,a_desc,i_step,i_index,a_comm,i_tload,i_texec);
END IF;

raise NOTICE  '(Instruction index:%  Code "%", inserted into database.)',i_index, a_code;
/*! Function return the Instruction identificator created */ 
RETURN i_inst;
END;$_$;


ALTER FUNCTION public.pl_addinstructiondef(integer, character varying, character varying, integer, integer, character varying, integer, integer) OWNER TO ekergy;

--
-- Name: FUNCTION pl_addinstructiondef(integer, character varying, character varying, integer, integer, character varying, integer, integer); Type: COMMENT; Schema: public; Owner: ekergy
--

COMMENT ON FUNCTION pl_addinstructiondef(integer, character varying, character varying, integer, integer, character varying, integer, integer) IS 'Function to add a new instruction definition of a procedure step	
 	Parameters are stepId, code,description,flag of continuous action, index ,comment,time exec and task load.';


--
-- Name: pl_additem(integer, character varying, character varying, character varying, integer, integer); Type: FUNCTION; Schema: public; Owner: ekergy
--

CREATE FUNCTION pl_additem(integer, character varying, character varying, character varying, integer, integer) RETURNS integer
    LANGUAGE plpgsql
    AS $_$
  
  /**********************	DECLARE SECTION			****************
******************************************************************************************/
DECLARE 	
/*! Aliases for input variables */
		i_instr		ALIAS FOR $1; -- Instruction identify
		a_code		ALIAS for $2;  --Code for Item 
		a_desc		ALIAS FOR $3; -- Item Description
		a_type		ALIAS FOR $4; -- Type of Item, eg: MESSAGE, MCW, CHECHK, ACTION, GOTO 
		i_order		ALIAS FOR $5; -- Item order inside instruction 
		b_active	ALIAS FOR $6; -- Flag active item 
		
		
/*! Temporal Internal Variables for function issues	*/		
		i_item		int4;
		r_instr           record;		
		i_type		integer;
		aUT_type        varchar; 
		
/**********************	BEGIN FUCNTION *****************/ 
BEGIN

aUT_type := upper(trim(a_type)); 


-- RAISE NOTICE ' Tipo de Item: %', a_action; 

-- Checks that the instruction id already exists. 

SELECT INTO r_instr * FROM tspr_instruction WHERE instruction_id = i_instr; 


IF NOT FOUND THEN
	RAISE EXCEPTION '(Instruction id % does not exist. )', i_instr;
 	RETURN 0;  		
ELSE

	-- Found what is the type of item
	select item_type_id into i_type from tspr_item_type where item_type_cod = aUT_type ;  
	IF NOT FOUND THEN 
		RAISE EXCEPTION '(Item Type code % is not defined in the system. )', aUT_type;
		RETURN 0;  		
	ELSE 
	
		-- Creates a new registry into database 
		SELECT NEXTVAL('sq_item') INTO i_item;

		--Inserts the item definition
		INSERT INTO tspr_item (item_id, item_cod, item_desc, item_order, item_type_id, instruction_id, flag_active)
		VALUES(i_item,a_code,a_desc,i_order, i_type, i_instr, b_active);
	END IF; 
	
END IF;

raise NOTICE  '(Item Code "%", inserted into database with order %.)', a_code, i_order;
/*! Function return the Instruction identificator created */ 
RETURN i_item;
END;$_$;


ALTER FUNCTION public.pl_additem(integer, character varying, character varying, character varying, integer, integer) OWNER TO ekergy;

--
-- Name: FUNCTION pl_additem(integer, character varying, character varying, character varying, integer, integer); Type: COMMENT; Schema: public; Owner: ekergy
--

COMMENT ON FUNCTION pl_additem(integer, character varying, character varying, character varying, integer, integer) IS 'Function to add a new item definition for an instruction';


--
-- Name: pl_additem_action(integer, character varying, character varying); Type: FUNCTION; Schema: public; Owner: ekergy
--

CREATE FUNCTION pl_additem_action(integer, character varying, character varying) RETURNS integer
    LANGUAGE plpgsql
    AS $_$
  
  /**********************	DECLARE SECTION			****************
******************************************************************************************/
DECLARE 	
/*! Aliases for input variables */
		i_item		ALIAS FOR $1;	
		a_action_type	ALIAS FOR $2;			
		a_command	ALIAS FOR $3;			
		
		
/*! Temporal Internal Variables for function issues	*/		
		i_action	integer;
		i_action_type	integer;
		r_item           record;		
		
/**********************	BEGIN FUCNTION *****************/ 
BEGIN
-- Checks that the item id already exists. 

SELECT INTO r_item * FROM tspr_item WHERE item_id = i_item; 

IF NOT FOUND THEN
	RAISE EXCEPTION '(Item id % does not exist. )', i_item;
 	RETURN 0;  		
ELSE

	-- Found what is action type
	select action_type_id into i_action_type from tspr_action_type where action_type_cod = upper(trim(a_action_type)) ;  

	IF NOT FOUND THEN 
		RAISE EXCEPTION '(action type code % is not defined in the system. )', a_action_type;
		RETURN 0;  		
	ELSE 		
		-- Creates a new registry into database 
		SELECT NEXTVAL('sq_action') INTO i_action;
	
		--Inserts the action table definition
		INSERT INTO tspr_item_action (action_id, item_id, action_type_id,  command)
		VALUES(i_action, i_item, i_action_type, a_command);

	END IF; 
END IF;

raise NOTICE  '(Action Item: "%", inserted into database.)',a_command;

/*! If everything went OK we must return 1 */ 

RETURN 1;
END;$_$;


ALTER FUNCTION public.pl_additem_action(integer, character varying, character varying) OWNER TO ekergy;

--
-- Name: pl_additem_check(integer, character varying, character varying, character varying, character varying); Type: FUNCTION; Schema: public; Owner: ekergy
--

CREATE FUNCTION pl_additem_check(integer, character varying, character varying, character varying, character varying) RETURNS integer
    LANGUAGE plpgsql
    AS $_$
  
  /**********************	DECLARE SECTION			****************
******************************************************************************************/
DECLARE 	
/*! Aliases for input variables */
		i_item		ALIAS FOR $1;	
		a_condition	ALIAS FOR $2;	
		a_command	ALIAS FOR $3;			
		a_target	ALIAS FOR $4;
		a_else_command  ALIAS FOR $5;
		
		
/*! Temporal Internal Variables for function issues	*/		
		i_mcw	integer; 
		r_item           record;		
		
/**********************	BEGIN FUCNTION *****************/ 
BEGIN
-- Checks that the item id already exists. 

SELECT INTO r_item * FROM tspr_item WHERE item_id = i_item; 

IF NOT FOUND THEN
	RAISE EXCEPTION '(Item id % does not exist. )', i_item;
 	RETURN 0;  		
ELSE
	-- Creates a new registry into database 
	SELECT NEXTVAL('sq_mcw') INTO i_mcw;

	--Inserts the mcw definition
	INSERT INTO tspr_mcw (mcw_id, item_id, condition, command, type, "else", target)
	VALUES(i_mcw, i_item, a_condition, a_command, 'check', a_else_command, a_target ); 
END IF;

raise NOTICE  '(Check Item :%  inserted into database.)',i_item;

/*! Function return the error indicator */ 

RETURN 1;
END;$_$;


ALTER FUNCTION public.pl_additem_check(integer, character varying, character varying, character varying, character varying) OWNER TO ekergy;

--
-- Name: pl_additem_goto(integer, character varying, character varying, character varying, character varying); Type: FUNCTION; Schema: public; Owner: ekergy
--

CREATE FUNCTION pl_additem_goto(integer, character varying, character varying, character varying, character varying) RETURNS integer
    LANGUAGE plpgsql
    AS $_$
  
  /**********************	DECLARE SECTION			****************
******************************************************************************************/
DECLARE 	
/*! Aliases for input variables */
		i_item		ALIAS FOR $1;	
		a_gotype	ALIAS FOR $2;	
		a_proc		ALIAS FOR $3;	
		a_ini_step	ALIAS FOR $4;			
		a_fin_step	ALIAS FOR $5;	
		

/*! Temporal Internal Variables for function issues	*/		
		r_item           record;		
		
		i_fromproc	integer; 
		i_fromstep	integer; 

		i_to_ini_step    integer;  
		i_to_fin_step    integer;  		
		
		i_toproc	integer; 
		
		a_toproc	varchar; 
		i_goto integer; 
		
/**********************	BEGIN FUCNTION *****************/ 
BEGIN
-- Checks that the item id already exists. 

SELECT INTO r_item * FROM tspr_item WHERE item_id = i_item; 

IF NOT FOUND THEN
	RAISE EXCEPTION '(Item id % does not exist. )', i_item;
 	RETURN 0;  		
ELSE

	-- Get step and procedure info for our To item 
	select ta.step_id, ta.procedure_id into i_fromstep, i_fromproc  
	from tspr_step ta, tspr_instruction tb, tspr_item tc 
	where tc.item_id=i_item and ta.step_id = tb.step_id and tb.instruction_id=tc.instruction_id; 

	-- Check if procedure is the same that this item or if another proc. 

	IF length(trim(a_proc))= 0  THEN 
		-- raise notice '( El mismo proc)'; 
		i_toproc := i_fromproc; 
		select procedure_cod into a_toproc from tspr_procedure where procedure_id =  i_fromproc; 

	ELSE 
		select procedure_id into i_toproc from tspr_procedure where procedure_cod = upper(trim(a_proc)); 
		a_toproc := a_proc; 
		IF NOT FOUND THEN
			RAISE EXCEPTION '(Procedure target Code % does not exist. )', a_proc ;
			RETURN 0;  		
		END IF; 
	END IF; 
	--raise notice '( valor de to procedure id % )' ,  i_toproc ; 

	select step_id into i_to_ini_step from tspr_step where procedure_id = i_toproc and step_cod = trim(upper(a_ini_step)) ; 
	IF NOT FOUND THEN
		RAISE EXCEPTION '(Initial Step Code "%" does not exist for procedure Code "%" . )', a_ini_step, a_toproc  ;
		RETURN 0;  		
	ELSE
		select step_id into i_to_fin_step from tspr_step where  procedure_id = i_toproc and step_cod = trim(upper(a_fin_step)) ; 
		IF NOT FOUND THEN
			RAISE EXCEPTION '(Final Step Code "%" does not exist for procedure Code "%" . )', a_fin_step, a_toproc ;
			RETURN 0;  					
		END IF; 
	END IF; 

	--Inserts the goto definition
		-- Creates a new registry into database 
	SELECT NEXTVAL('sq_goto') INTO i_goto;

	INSERT INTO tspr_goto (goto_id, from_id, to_step_id, final_step_id, gotype_cod)
	VALUES(i_goto, i_item, i_to_ini_step, i_to_fin_step, a_gotype);
END IF;

raise NOTICE  '(Goto Item :%  inserted into database.)',i_item;

/*! If everything went OK we must return 1 */ 

RETURN 1;
END;$_$;


ALTER FUNCTION public.pl_additem_goto(integer, character varying, character varying, character varying, character varying) OWNER TO ekergy;

--
-- Name: pl_additem_mcw(integer, character varying, character varying, character varying); Type: FUNCTION; Schema: public; Owner: ekergy
--

CREATE FUNCTION pl_additem_mcw(integer, character varying, character varying, character varying) RETURNS integer
    LANGUAGE plpgsql
    AS $_$
  
  /**********************	DECLARE SECTION			****************
******************************************************************************************/
DECLARE 	
/*! Aliases for input variables */
		i_item		ALIAS FOR $1;	
		a_mcw_type	ALIAS FOR $2;	
		a_condition	ALIAS FOR $3;	
		a_command	ALIAS FOR $4;			
		
		
/*! Temporal Internal Variables for function issues	*/		
		i_mcw	integer; 
		r_item           record;		
		
/**********************	BEGIN FUCNTION *****************/ 
BEGIN
-- Checks that the item id already exists. 

SELECT INTO r_item * FROM tspr_item WHERE item_id = i_item; 

IF NOT FOUND THEN
	RAISE EXCEPTION '(Item id % does not exist. )', i_item;
 	RETURN 0;  		
ELSE
	-- Creates a new registry into database 
	SELECT NEXTVAL('sq_mcw') INTO i_mcw;

	--Inserts the mcw definition
	INSERT INTO tspr_mcw (mcw_id, item_id, type, condition, command)
	VALUES(i_mcw, i_item, a_mcw_type, a_condition, a_command);
END IF;

raise NOTICE  '(MCW Item :%  inserted into database.)',i_item;

/*! If everything went OK we must return 1  */ 

RETURN 1;
END;$_$;


ALTER FUNCTION public.pl_additem_mcw(integer, character varying, character varying, character varying) OWNER TO ekergy;

--
-- Name: pl_additem_message(integer, text); Type: FUNCTION; Schema: public; Owner: ekergy
--

CREATE FUNCTION pl_additem_message(integer, text) RETURNS integer
    LANGUAGE plpgsql
    AS $_$
  
  /**********************	DECLARE SECTION			****************
******************************************************************************************/
DECLARE 	
/*! Aliases for input variables */
		i_item		ALIAS FOR $1;	
		a_message	ALIAS FOR $2;	
		
		
		
/*! Temporal Internal Variables for function issues	*/		
		
		r_item           record;		
		
/**********************	BEGIN FUCNTION *****************/ 
BEGIN
-- Checks that the item id already exists. 

SELECT INTO r_item * FROM tspr_item WHERE item_id = i_item; 

IF NOT FOUND THEN
	RAISE EXCEPTION '(Item id % does not exist. )', i_item;
 	RETURN 0;  		
ELSE
	
	--Inserts the item definition
	INSERT INTO tspr_message (item_id, message)
	VALUES(i_item, a_message);
END IF;

raise NOTICE  '(Message Item :%  inserted into database.)',i_item;

/*! If everything went OK we return 1 */ 

RETURN 1;
END;$_$;


ALTER FUNCTION public.pl_additem_message(integer, text) OWNER TO ekergy;

--
-- Name: pl_additem_monitor_sentence(integer, integer, character varying, character varying, character varying, character varying); Type: FUNCTION; Schema: public; Owner: ekergy
--

CREATE FUNCTION pl_additem_monitor_sentence(integer, integer, character varying, character varying, character varying, character varying) RETURNS integer
    LANGUAGE plpgsql
    AS $_$
  
  /**********************	DECLARE SECTION			****************
******************************************************************************************/
DECLARE 	
/*! Aliases for input variables */
		i_item		ALIAS FOR $1;
		i_timewindow	ALIAS FOR $2;
		a_condition	ALIAS FOR $3;	
		a_command	ALIAS FOR $4;			
		a_code		ALIAS FOR $5;			
		a_target	ALIAS FOR $6;			
		
		
/*! Temporal Internal Variables for function issues	*/		
		i_mcw	integer; 
		r_item           record;		
		
/**********************	BEGIN FUCNTION *****************/ 
BEGIN
-- Checks that the item id already exists. 

SELECT INTO r_item * FROM tspr_item WHERE item_id = i_item; 

IF NOT FOUND THEN
	RAISE EXCEPTION '(Item id % does not exist. )', i_item;
 	RETURN 0;  		
ELSE
	-- Creates a new registry into database 
	SELECT NEXTVAL('sq_mcw') INTO i_mcw;

	--Inserts the mcw definition
	INSERT INTO tspr_mcw (mcw_id, item_id, type, condition, command, target, code, timewindow)
	VALUES(i_mcw, i_item, 'monitor', a_condition, a_command,a_target, a_code, i_timewindow);
END IF;

raise NOTICE  '(Monitor Item :"%"  inserted into database, with timewindow "%" and for condition "%".)', i_item, i_timewindow, a_condition;

/*! If everything went OK we must return 1  */ 

RETURN 1;
END;$_$;


ALTER FUNCTION public.pl_additem_monitor_sentence(integer, integer, character varying, character varying, character varying, character varying) OWNER TO ekergy;

--
-- Name: pl_addprocedure(character varying, character varying, character varying, character varying, integer, integer); Type: FUNCTION; Schema: public; Owner: ekergy
--

CREATE FUNCTION pl_addprocedure(character varying, character varying, character varying, character varying, integer, integer) RETURNS integer
    LANGUAGE plpgsql
    AS $_$
 DECLARE 	
/*! Aliases for input variables */			
		a_code		ALIAS FOR $1;	
		a_name		ALIAS FOR $2;
		a_desc		ALIAS FOR $3;
		a_comm		ALIAS FOR $4;
		b_replace	ALIAS FOR $5;	
		i_delayload	ALIAS FOR $6;
/*! Temporal Internal Variables for function issues	*/		
		i_proc		        integer;
		i_del		        integer;
		r_tmp	                record;		
		
BEGIN
-- Check if  same code has been	defined before, 
SELECT INTO r_tmp * FROM tspr_procedure WHERE procedure_cod = a_code;
IF FOUND THEN
	-- if already exists and replace flag is true,  then we delete the old procedure 
	IF b_replace = 1 THEN
		SELECT INTO i_del pl_delallprocedure(a_code) ;		
	ELSE	
		--if replace flag is false then we return an error. 
		RAISE EXCEPTION 'Procedure code "%" already inserted into Database. ', a_code;
		RETURN 	0;  	
	END IF; 	
END IF; 	

SELECT NEXTVAL('sq_procedure') into i_proc;	
INSERT INTO tspr_procedure (procedure_id, procedure_cod, procedure_name, procedure_desc, comment, delay_load)
	VALUES (i_proc, a_code, a_name, a_desc,a_comm,i_delayload);

--Debug
raise NOTICE  'Procedure "%" ["%"], inserted into database.',i_proc, a_code;

-- Funciton returns topolgy identificator created. 
return i_proc;
END;$_$;


ALTER FUNCTION public.pl_addprocedure(character varying, character varying, character varying, character varying, integer, integer) OWNER TO ekergy;

--
-- Name: FUNCTION pl_addprocedure(character varying, character varying, character varying, character varying, integer, integer); Type: COMMENT; Schema: public; Owner: ekergy
--

COMMENT ON FUNCTION pl_addprocedure(character varying, character varying, character varying, character varying, integer, integer) IS 'Function to add a Procedure  definition into database. Next to the last parameter let us to replace an exisiting procedure ';


--
-- Name: pl_addrestart(double precision, integer, integer, integer, integer, integer, integer, integer, character varying, integer, integer); Type: FUNCTION; Schema: public; Owner: ekergy
--

CREATE FUNCTION pl_addrestart(double precision, integer, integer, integer, integer, integer, integer, integer, character varying, integer, integer) RETURNS integer
    LANGUAGE plpgsql
    AS $_$
  
  /**********************	DECLARE SECTION			****************
******************************************************************************************/
DECLARE 	
/*! Aliases for input variables */
		f_time		 	ALIAS FOR $1;	
		i_master_sim_id	 	ALIAS FOR $2;	
		i_simproc_id	 	ALIAS FOR $3;
		i_path_id	 	ALIAS FOR $4;
		i_setpoint_id		ALIAS FOR $5; 
		i_curr_poe_id		ALIAS FOR $6; 
		i_curr_step_id		ALIAS FOR $7;
		i_curr_inst_id		ALIAS FOR $8;
		a_curr_spc_state  	ALIAS FOR $9;
		i_adv_inst_flag  	ALIAS FOR $10;
		i_end_poe_flag  	ALIAS FOR $11;
		
/*! Temporal Internal Variables for function issues	*/		
		i_restart	int4;
		r_tmp_poe       record;		
		r_tmp_step	record;
		r_tmp_inst 	record;
		
/**********************	BEGIN FUCNTION *****************/ 
BEGIN
-- Checks that the procedure id already exists. 
SELECT INTO r_tmp_poe * FROM tspr_procedure WHERE procedure_id = i_curr_poe_id; 
IF NOT FOUND THEN
	RAISE EXCEPTION '(POE id % does not exist. )', i_curr_poe_id;
 	RETURN 0;  		
ELSE
  -- Checks that the step id already exists. 
  SELECT INTO r_tmp_step * FROM tspr_step WHERE step_id = i_curr_step_id; 
  IF NOT FOUND THEN
    	  RAISE EXCEPTION '(STEP id % does not exist. )', i_curr_step_id;
 	  RETURN 0;  		
  ELSE
    -- Checks that the instruction id already exists. 
    SELECT INTO r_tmp_inst * FROM tspr_instruction WHERE instruction_id = i_curr_inst_id; 
    IF NOT FOUND THEN
	    RAISE EXCEPTION '(INSTRUCTION id % does not exist. )', i_curr_inst_id;
 	    RETURN 0;  		
    ELSE
      -- Creates a new registry into database 
      SELECT NEXTVAL('sq_restart') INTO i_restart;
      --Inserts the restart definition 
      INSERT INTO tspr_simproc_state(time, current_simproc_state, simproc_id, path_id, setpoint_id, simproc_restart_id) VALUES(f_time, a_curr_spc_state, i_simproc_id, i_path_id, i_setpoint_id, i_restart);
      INSERT INTO tspr_restart_params(restart_id, path_id, simproc_id, master_sim_id, setpoint_id, current_poe_id, current_step_id, current_inst_id, advance_inst_flag, end_poe_flag) 
	VALUES(i_restart, i_path_id, i_simproc_id, i_master_sim_id, i_setpoint_id, i_curr_poe_id, i_curr_step_id, i_curr_inst_id, i_adv_inst_flag, i_end_poe_flag );
    END IF;
  END IF;
END IF;

raise NOTICE  '(Simproc Restart Id:% linked with PathId "%", inserted into database.)',i_restart, i_path_id;
/*! Function return the Instruction identificator created */ 
RETURN i_restart;
END;$_$;


ALTER FUNCTION public.pl_addrestart(double precision, integer, integer, integer, integer, integer, integer, integer, character varying, integer, integer) OWNER TO ekergy;

--
-- Name: FUNCTION pl_addrestart(double precision, integer, integer, integer, integer, integer, integer, integer, character varying, integer, integer); Type: COMMENT; Schema: public; Owner: ekergy
--

COMMENT ON FUNCTION pl_addrestart(double precision, integer, integer, integer, integer, integer, integer, integer, character varying, integer, integer) IS 'Function to add a new Simproc Restart. Parameters are time, master_sim_id, simproc_id, path_id, setpoint_id, current_procedure_id, current_step_id, current_inst_id, current_simproc_state .';


--
-- Name: pl_addsimprocsimulation(integer, character varying, character varying, double precision, double precision, double precision, integer, character varying); Type: FUNCTION; Schema: public; Owner: ekergy
--

CREATE FUNCTION pl_addsimprocsimulation(integer, character varying, character varying, double precision, double precision, double precision, integer, character varying) RETURNS integer
    LANGUAGE plpgsql
    AS $_$
  
  /**********************	DECLARE SECTION			****************
******************************************************************************************/
DECLARE 	
/*! Aliases for input variables */
		i_sim_parent		ALIAS FOR $1;
		proc_code		ALIAS FOR $2;	
		sim_nam 		ALIAS FOR $3;			
		init_tim		ALIAS FOR $4;			
		end_tim	        	ALIAS FOR $5;
		co_time 		ALIAS FOR $6;
		spc_nominal_flag 	ALIAS FOR $7;
		a_node_code		ALIAS FOR $8;
		
		
/*! Temporal Internal Variables for function issues	*/	
		i_sim		integer;	--Simproc Simulation Id
		i_proc 		integer;	--Procedure Id	
		r_tmp		record;
		rec		record;
		rec2		record;
		spc_name 	varchar;
		spc_res_index   integer;
                a_hev_code 	varchar;
		a_hev_history   varchar;
		
/**********************	BEGIN FUCNTION *****************/ 
BEGIN
-- We validate identificator start input  passed 	
SELECT INTO r_tmp * FROM tspr_procedure WHERE procedure_cod = proc_code;
IF NOT FOUND THEN	
	RAISE EXCEPTION '( Procedure code % does not exist. )', proc_code ;
	RETURN 0;  	
ELSE
	i_proc = r_tmp.procedure_id;
	raise NOTICE '(Procedure Code: "%")', proc_code;
        a_hev_code := split_part(a_node_code, ':', 2);
	IF spc_nominal_flag = 1 THEN
		spc_name := 'Nominal' || sim_nam ; 
		--We reset Simproc Restart Index Counter
		SELECT setval('sq_restart_index', 1, false) into spc_res_index; -- Next nextval will return 1
		raise NOTICE '(Inserting Nominal Simproc Simulation: "%")',spc_name;
		-- If there are another Simproc Simulations with the same name we delete them
		FOR rec in select * from tspr_simproc where upper(simulation_name) = upper(sim_nam) LOOP
			raise NOTICE  '(Deleting Simproc Simulation Id %, )', rec.simproc_id;
			delete from tspr_simproc_state where simproc_id = rec.simproc_id;
			delete from tspr_restart_params where simproc_id = rec.simproc_id;
			delete from tspr_simproc_proc where simproc_id = rec.simproc_id;
			
			delete from tspr_simproc_tree where simproc_id = rec.simproc_id;
			delete from tspr_restart_monitors where simproc_id = rec.simproc_id;
			delete from tspr_restart_state where 
				restart_id in (
					select restart_id from tspr_restart_params where simproc_id = rec.simproc_id);
                        delete from tspr_simproc where simproc_id = rec.simproc_id; 
			-- delete from tspr_simproc_var where simproc_id = rec.simproc_id;
			-- delete from tspr_currstate_var where simproc_id = rec.simproc_id;
			-- delete from tspr_varmap where simproc_id = rec.simproc_id;
			-- delete from tspr_statemap where simproc_id = rec.simproc_id;
			-- delete from tspr_operator where simproc_id = rec.simproc_id;
		END LOOP;
	ELSE
		-- We increment Simproc Restart Index
		SELECT nextval('sq_restart_index') into spc_res_index;
		spc_name := 'Restart' || spc_res_index || '--' || sim_nam ; 
		raise NOTICE '(Inserting Restart Simproc Simulation: "%")', spc_name;
	END IF;

	-- We increment Simproc Simulation Id
	SELECT nextval('sq_simproc') into i_sim;
	raise NOTICE  '(Simproc Id: %, generated.)', i_sim;

	INSERT INTO tspr_simproc_tree (simproc_id, simproc_par_id, nominal_flag, node_code) 
	values (i_sim, i_sim_parent, spc_nominal_flag, a_node_code);

	IF i_sim_parent = 0 THEN
		UPDATE tspr_simproc_tree SET hev_history = a_hev_code WHERE simproc_id = i_sim;
	ELSE
		SELECT INTO rec2 * FROM tspr_simproc_tree WHERE simproc_id = i_sim_parent;
		a_hev_history = rec2.hev_history;
		-- The parent succeed the hev
		UPDATE tspr_simproc_tree SET hev_history = a_hev_history || '+' || a_hev_code WHERE simproc_id = i_sim_parent;
		-- The new simproc fails the hev
		UPDATE tspr_simproc_tree SET hev_history = a_hev_history || '-' || a_hev_code WHERE simproc_id = i_sim;
	END IF;

	INSERT INTO tspr_simproc (simproc_id, initial_time, end_time, comm_time, simulation_name, nominal_flag, simproc_name) 
	values ( i_sim, init_tim, end_tim, co_time, sim_nam, spc_nominal_flag, spc_name);

	INSERT INTO tspr_simproc_proc (simproc_id, procedure_id ) values (i_sim, i_proc);  	
	
END IF;

raise NOTICE  '(Simproc Simulation Id: "%", inserted into database.)',i_sim;

RETURN i_sim;
END;$_$;


ALTER FUNCTION public.pl_addsimprocsimulation(integer, character varying, character varying, double precision, double precision, double precision, integer, character varying) OWNER TO ekergy;

--
-- Name: pl_addstep(integer, character varying, character varying, character varying, integer, integer, character varying); Type: FUNCTION; Schema: public; Owner: ekergy
--

CREATE FUNCTION pl_addstep(integer, character varying, character varying, character varying, integer, integer, character varying) RETURNS integer
    LANGUAGE plpgsql
    AS $_$
  
  /**********************	DECLARE SECTION			****************
******************************************************************************************/
DECLARE 	
/*! Aliases for input variables */
		i_proc		ALIAS FOR $1;	
		a_code		ALIAS FOR $2;	
		a_name		ALIAS FOR $3;
		a_desc		ALIAS FOR $4;
		i_index		ALIAS FOR $5; 
		i_levdebug	ALIAS FOR $6; -- debugging level ( 0, 1, 2) 
		a_skill		ALIAS FOR $7; 
		
/*! Temporal Internal Variables for function issues	*/		
	i_step	        integer;
	r_tmp	        record;	
	i_skill	        integer; -- skill id
	skill_code      varchar; -- skill code (REACTOR, TURBINE ...)
		
/**********************	BEGIN FUCNTION *****************/ 
BEGIN
-- Checks that the procedure id already exists. 
SELECT INTO r_tmp * FROM tspr_procedure WHERE procedure_id = i_proc; 
IF NOT FOUND THEN
	RAISE EXCEPTION '(Procedure id % does not exist. )', i_proc;
 	RETURN 0;  		

ELSE
	-- Checks that the we have already defined the skill code. 
	skill_code := upper(trim(a_skill)); 

	SELECT skill_id INTO i_skill FROM tspr_skill_type WHERE skill_cod = skill_code ;  
	IF NOT FOUND THEN 
		RAISE EXCEPTION '(Skill code % is not defined in the system. )', skill_code;
		RETURN 0;  		
	ELSE 
		-- Create e a eew registry into database 
		SELECT NEXTVAL('sq_step') INTO i_step;	

		INSERT INTO tspr_step(step_id, step_cod, step_name,step_desc ,procedure_id ,index, debugging_level, skill_id)
		VALUES	(i_step, a_code, a_name,a_desc, i_proc,i_index, i_levdebug, i_skill); 
	END IF; 
END IF;

raise NOTICE  '(Step  Code "%", inserted into database.)', a_code;
/*! Function return the Block identificator created */ 
RETURN i_step;
END;$_$;


ALTER FUNCTION public.pl_addstep(integer, character varying, character varying, character varying, integer, integer, character varying) OWNER TO ekergy;

--
-- Name: FUNCTION pl_addstep(integer, character varying, character varying, character varying, integer, integer, character varying); Type: COMMENT; Schema: public; Owner: ekergy
--

COMMENT ON FUNCTION pl_addstep(integer, character varying, character varying, character varying, integer, integer, character varying) IS 'Function to add a new step of a procedure 	
 	Parameters are code, name, description, index on procedure, debug level flag, skill code of the step.';


--
-- Name: pl_addvariable(integer, character varying); Type: FUNCTION; Schema: public; Owner: ekergy
--

CREATE FUNCTION pl_addvariable(integer, character varying) RETURNS integer
    LANGUAGE plpgsql
    AS $_$  
DECLARE 	
/*! Aliases for input variables */
		i_item		ALIAS FOR $1;	
		a_var_code	ALIAS FOR $2;							
/*! Temporal Internal Variables for function issues	*/		
		i_var_id      	integer;		
		i_temp integer;
		r_item		record;		
		a_var           varchar; 
		
BEGIN

a_var := upper(trim(a_var_code)); 

-- Check that block  id exists.	
select into r_item * from tspr_item where item_id  = i_item; 
IF NOT FOUND THEN
	raise EXCEPTION '( Item Id % does not exist. )', i_item ; 	
 	return 0;  		
else
	-- Check if variable exits, if it is then return identify 
	select  into i_temp var_spr_id from tspr_item_var where item_id = i_item and var_spr_cod = a_var ; 
	IF NOT FOUND THEN	
		select nextval('sq_item_var') into i_var_id; 	
		insert into tspr_item_var (var_spr_id,  item_id,  var_spr_cod )
		values 			   (i_var_id, i_item,  a_var);
		return i_var_id; 
        ELSE					
		return i_temp; 		
	END IF;	
END IF;
raise NOTICE  '(SimProc Variable Code  %, inserted into database, for item %.)', a_var, i_item ;
END; $_$;


ALTER FUNCTION public.pl_addvariable(integer, character varying) OWNER TO ekergy;

--
-- Name: pl_delallprocedure(integer); Type: FUNCTION; Schema: public; Owner: ekergy
--

CREATE FUNCTION pl_delallprocedure(integer) RETURNS integer
    LANGUAGE plpgsql
    AS $_$
  /**********************	DECLARE SECTION			****************/     
DECLARE
/*! Aliases for input variables */		
		i_proc		ALIAS FOR $1;
/*! Temporal Internal Variables for function issues	*/	 	 				
	        r_proc	        record;
		r_step		record;
		r_inst		record;
		r_item		record;
		
BEGIN
-- Checks that the procedure id already exists. 	
SELECT INTO r_proc * FROM tspr_procedure WHERE procedure_id  = i_proc; 
IF NOT FOUND THEN
	RAISE EXCEPTION '( Procedure Id % does not exist. )', i_proc;
 	return 0;  		
ELSE
	--Selects all the steps of the procedure
	FOR r_step IN SELECT * FROM tspr_step WHERE procedure_id  = i_proc LOOP
		--Selects all instructions owned by a step.
		FOR r_inst IN SELECT * FROM tspr_instruction WHERE step_id = r_step.step_id LOOP
			--Selects all items owned by a instruction
			FOR r_item IN SELECT * FROM tspr_item WHERE instruction_id = r_inst.instruction_id LOOP
				--Deletes the items
				DELETE FROM tspr_item WHERE item_id = r_item.item_id;
			END LOOP;
			--Deletes the instructions
			DELETE FROM tspr_instruction WHERE instruction_id = r_inst.instruction_id;
		END LOOP;
		--Deletes the steps
		DELETE FROM tspr_step WHERE step_id = r_step.step_id;
	END LOOP;

	--Deletes the procedure definition
	DELETE FROM tspr_procedure WHERE procedure_id = i_proc; 
END IF;


/*! The function returns 1 if all went ok */ 
return 1; 
raise NOTICE  '( Procedure %, deleted  from database.)', r_proc.procedure_name ;
END;$_$;


ALTER FUNCTION public.pl_delallprocedure(integer) OWNER TO ekergy;

--
-- Name: FUNCTION pl_delallprocedure(integer); Type: COMMENT; Schema: public; Owner: ekergy
--

COMMENT ON FUNCTION pl_delallprocedure(integer) IS 'Function to delete a toplogy  and all its definition data,  that depends of it.If topology have any simulation save in database tou must delete it before';


--
-- Name: pl_delallprocedure(character varying); Type: FUNCTION; Schema: public; Owner: ekergy
--

CREATE FUNCTION pl_delallprocedure(character varying) RETURNS integer
    LANGUAGE plpgsql
    AS $_$
  /**********************	DECLARE SECTION			****************/     
DECLARE
/*! Aliases for input variables */		
		a_code		ALIAS FOR $1;
/*! Temporal Internal Variables for function issues	*/	 	 				
	        r_proc	        record;
		i_num		int4;
		
BEGIN
-- Check that the procedure code already exists. 	
SELECT INTO r_proc * FROM tspr_procedure WHERE procedure_cod  = a_code; 
IF NOT FOUND THEN
	RAISE EXCEPTION '( Procedure Code % does not exist. )', a_code;
 	return 0;  		
ELSE
	--Deletes the procedure definition
	SELECT INTO i_num pl_delallprocedure(r_proc.procedure_id);
END IF;


/*! The function returns 1 if all went ok */ 
return i_num; 
raise NOTICE  '( Procedure %, deleted  from database.)', r_proc.procedure_name ;
END;$_$;


ALTER FUNCTION public.pl_delallprocedure(character varying) OWNER TO ekergy;

--
-- Name: FUNCTION pl_delallprocedure(character varying); Type: COMMENT; Schema: public; Owner: ekergy
--

COMMENT ON FUNCTION pl_delallprocedure(character varying) IS 'Function to delete a toplogy  and all its definition data,  that depends of it.';


--
-- Name: pl_savemonitor(integer, integer); Type: FUNCTION; Schema: public; Owner: ekergy
--

CREATE FUNCTION pl_savemonitor(integer, integer) RETURNS integer
    LANGUAGE plpgsql
    AS $_$
  
  /**********************	DECLARE SECTION			****************
******************************************************************************************/
DECLARE 	
/*! Aliases for input variables */
		i_path_id	 	ALIAS FOR $1;
		i_item_id	 	ALIAS FOR $2;	
		
/*! Temporal Internal Variables for function issues	*/		
		i_simproc_id	int4;
		r_tmp_path      record;
		r_tmp_item      record;		
		
/**********************	BEGIN FUCNTION *****************/ 
BEGIN
-- Checks that the path id already exists. 
SELECT INTO r_tmp_path * FROM tspr_restart_params WHERE path_id = i_path_id; 
IF NOT FOUND THEN
	RAISE EXCEPTION '(PATH id % does not exist. )', i_path_id;
 	RETURN 0;  		
ELSE
  i_simproc_id = r_tmp_path.simproc_id;
  -- Checks that the item id already exists. 
  SELECT INTO r_tmp_item * FROM tspr_item WHERE item_id = i_item_id; 
  IF NOT FOUND THEN
    	  RAISE EXCEPTION '(ITEM id % does not exist. )', i_item_id;
 	  RETURN 0;  		
  ELSE
      --Inserts the item id
      INSERT INTO tspr_restart_monitors(simproc_id, path_id, item_id) VALUES(i_simproc_id, i_path_id, i_item_id);
  END IF;
END IF;

raise NOTICE  '(Monitor Id:% linked with PathId "%", inserted into database.)',i_item_id, i_path_id;
/*! If everything went OK we must return 1 */ 
RETURN 1;
END;$_$;


ALTER FUNCTION public.pl_savemonitor(integer, integer) OWNER TO ekergy;

--
-- Name: FUNCTION pl_savemonitor(integer, integer); Type: COMMENT; Schema: public; Owner: ekergy
--

COMMENT ON FUNCTION pl_savemonitor(integer, integer) IS 'Function to add Monitors id to the DB to be able to restore them via restarts.';


--
-- Name: pl_savemonitor(integer, integer, integer); Type: FUNCTION; Schema: public; Owner: ekergy
--

CREATE FUNCTION pl_savemonitor(integer, integer, integer) RETURNS integer
    LANGUAGE plpgsql
    AS $_$
  
  /**********************	DECLARE SECTION			****************
******************************************************************************************/
DECLARE 	
/*! Aliases for input variables */
		i_path_id	 	ALIAS FOR $1;
		i_item_id	 	ALIAS FOR $2;	
		i_event_id		ALIAS FOR $3;
		
/*! Temporal Internal Variables for function issues	*/		
		i_simproc_id	int4;
		r_tmp_path      record;
		r_tmp_item      record;		
		
/**********************	BEGIN FUCNTION *****************/ 
BEGIN
-- Checks that the path id already exists. 
SELECT INTO r_tmp_path * FROM tspr_restart_params WHERE path_id = i_path_id and setpoint_id = i_event_id; 
IF NOT FOUND THEN
	RAISE EXCEPTION '(PATH id % or SETPOINT id % does not exist. )', i_path_id, i_event_id;
 	RETURN 0;  		
ELSE
  i_simproc_id = r_tmp_path.simproc_id;
  -- Checks that the item id already exists. 
  SELECT INTO r_tmp_item * FROM tspr_item WHERE item_id = i_item_id; 
  IF NOT FOUND THEN
    	  RAISE EXCEPTION '(ITEM id % does not exist. )', i_item_id;
 	  RETURN 0;  		
  ELSE
      --Inserts the item id
      INSERT INTO tspr_restart_monitors(simproc_id, path_id, item_id, event_id) VALUES(i_simproc_id, i_path_id, i_item_id, i_event_id);
  END IF;
END IF;

raise NOTICE  '(Monitor Id:% linked with PathId "%" and Event Id %, inserted into database.)',i_item_id, i_path_id, i_event_id;
/*! If everything went OK we must return 1 */ 
RETURN 1;
END;$_$;


ALTER FUNCTION public.pl_savemonitor(integer, integer, integer) OWNER TO ekergy;

--
-- Name: pl_saverestartstate(integer, character varying, character varying); Type: FUNCTION; Schema: public; Owner: ekergy
--

CREATE FUNCTION pl_saverestartstate(integer, character varying, character varying) RETURNS integer
    LANGUAGE plpgsql
    AS $_$  
DECLARE 	
/*! Aliases for input variables */
		i_restart	ALIAS FOR $1;	
		a_var_code	ALIAS FOR $2;
		a_var_value	ALIAS FOR $3;
/*! Temporal Internal Variables for function issues	*/				
		i_temp integer;
		
BEGIN


--select into i_item restart_id from tspr_restart_params where restart_id  = i_restart; 
--IF NOT FOUND THEN
--	raise EXCEPTION '( Restart Id % does not exist. )', i_item ; 	
-- 	return 0;  		
--else
	INSERT INTO tspr_restart_state (dvl_cod, restart_id,  dvl_val) VALUES ( a_var_code,i_restart, a_var_value);
--END IF;
raise NOTICE  '(SimProc Restart Code  %, inserted into database.)', a_var_code ;

return 0;

END; $_$;


ALTER FUNCTION public.pl_saverestartstate(integer, character varying, character varying) OWNER TO ekergy;

SET default_tablespace = '';

SET default_with_oids = false;

--
-- Name: tspr_instruction; Type: TABLE; Schema: public; Owner: ekergy; Tablespace: 
--

CREATE TABLE tspr_instruction (
    instruction_id integer NOT NULL,
    instruction_cod character varying(20) NOT NULL,
    instruction_desc character varying(1000),
    step_id integer NOT NULL,
    index integer NOT NULL,
    continuous_action_flag integer DEFAULT 0 NOT NULL,
    comment character varying(5000),
    task_load double precision DEFAULT 0 NOT NULL,
    task_time double precision DEFAULT 0 NOT NULL,
    condition character varying(200)
);


ALTER TABLE public.tspr_instruction OWNER TO ekergy;

--
-- Name: tspr_step; Type: TABLE; Schema: public; Owner: ekergy; Tablespace: 
--

CREATE TABLE tspr_step (
    step_id integer NOT NULL,
    step_cod character varying(20) NOT NULL,
    step_name character varying(100) NOT NULL,
    procedure_id integer NOT NULL,
    flag_forced_completion integer DEFAULT 0 NOT NULL,
    index integer NOT NULL,
    step_desc character varying(500),
    debugging_level integer DEFAULT 0 NOT NULL,
    skill_id integer
);


ALTER TABLE public.tspr_step OWNER TO ekergy;

--
-- Name: vinstructions; Type: VIEW; Schema: public; Owner: ekergy
--

CREATE VIEW vinstructions AS
    SELECT ti.instruction_cod, ti.instruction_desc, ti.instruction_id, ti.step_id, ti.continuous_action_flag, ti.comment, ti.task_load, ti.task_time, ti.index, ts.step_cod, ts.index AS step_index, ts.flag_forced_completion, ts.skill_id FROM tspr_instruction ti, tspr_step ts WHERE (ti.step_id = ts.step_id);


ALTER TABLE public.vinstructions OWNER TO ekergy;

--
-- Name: VIEW vinstructions; Type: COMMENT; Schema: public; Owner: ekergy
--

COMMENT ON VIEW vinstructions IS 'Vista para las instrucciones';


--
-- Name: sql_getinstructions(integer); Type: FUNCTION; Schema: public; Owner: ekergy
--

CREATE FUNCTION sql_getinstructions(integer) RETURNS SETOF vinstructions
    LANGUAGE sql STABLE
    AS $_$ SELECT * FROM vinstructions WHERE (step_id = $1);
$_$;


ALTER FUNCTION public.sql_getinstructions(integer) OWNER TO ekergy;

--
-- Name: FUNCTION sql_getinstructions(integer); Type: COMMENT; Schema: public; Owner: ekergy
--

COMMENT ON FUNCTION sql_getinstructions(integer) IS 'Function to get the instructions of a step';


--
-- Name: tspr_item; Type: TABLE; Schema: public; Owner: ekergy; Tablespace: 
--

CREATE TABLE tspr_item (
    item_id integer NOT NULL,
    item_desc character varying(500),
    item_order integer NOT NULL,
    instruction_id integer NOT NULL,
    item_cod character varying(20) NOT NULL,
    flag_active integer DEFAULT 0 NOT NULL,
    item_type_id integer NOT NULL
);


ALTER TABLE public.tspr_item OWNER TO ekergy;

--
-- Name: tspr_item_type; Type: TABLE; Schema: public; Owner: ekergy; Tablespace: 
--

CREATE TABLE tspr_item_type (
    item_type_id integer NOT NULL,
    item_type_cod character varying(20),
    flag_inmediate integer DEFAULT 0 NOT NULL
);


ALTER TABLE public.tspr_item_type OWNER TO ekergy;

--
-- Name: vitems; Type: VIEW; Schema: public; Owner: ekergy
--

CREATE VIEW vitems AS
    SELECT ta.item_id, ta.item_desc, ta.item_order, ta.instruction_id, ta.item_cod, ta.flag_active, ta.item_type_id, tb.item_type_cod, tb.flag_inmediate, tc.instruction_cod, tc.index AS instruction_index, tc.step_id, tc.continuous_action_flag FROM tspr_item ta, tspr_item_type tb, tspr_instruction tc WHERE ((ta.instruction_id = tc.instruction_id) AND (ta.item_type_id = tb.item_type_id));


ALTER TABLE public.vitems OWNER TO ekergy;

--
-- Name: sql_getitems(integer); Type: FUNCTION; Schema: public; Owner: ekergy
--

CREATE FUNCTION sql_getitems(integer) RETURNS SETOF vitems
    LANGUAGE sql STABLE
    AS $_$ SELECT * FROM  vitems WHERE (instruction_id =  $1); 
$_$;


ALTER FUNCTION public.sql_getitems(integer) OWNER TO ekergy;

--
-- Name: FUNCTION sql_getitems(integer); Type: COMMENT; Schema: public; Owner: ekergy
--

COMMENT ON FUNCTION sql_getitems(integer) IS 'Function to get the items of a instruction';


--
-- Name: tspr_action_type; Type: TABLE; Schema: public; Owner: ekergy; Tablespace: 
--

CREATE TABLE tspr_action_type (
    action_type_id integer NOT NULL,
    action_type_cod character varying(20) NOT NULL
);


ALTER TABLE public.tspr_action_type OWNER TO ekergy;

--
-- Name: tspr_item_action; Type: TABLE; Schema: public; Owner: ekergy; Tablespace: 
--

CREATE TABLE tspr_item_action (
    action_id integer NOT NULL,
    item_id integer NOT NULL,
    action_type_id integer NOT NULL,
    command character varying(50) NOT NULL
);


ALTER TABLE public.tspr_item_action OWNER TO ekergy;

--
-- Name: vitems_action; Type: VIEW; Schema: public; Owner: ekergy
--

CREATE VIEW vitems_action AS
    SELECT ta.action_id, ta.item_id, ta.action_type_id, ta.command, tb.action_type_cod FROM tspr_action_type tb, (tspr_item_action ta JOIN vitems USING (item_id)) WHERE (ta.action_type_id = tb.action_type_id);


ALTER TABLE public.vitems_action OWNER TO ekergy;

--
-- Name: sql_getitemsaction(integer); Type: FUNCTION; Schema: public; Owner: ekergy
--

CREATE FUNCTION sql_getitemsaction(integer) RETURNS SETOF vitems_action
    LANGUAGE sql STABLE
    AS $_$ SELECT * FROM  vitems_action WHERE (item_id =  $1); 
$_$;


ALTER FUNCTION public.sql_getitemsaction(integer) OWNER TO ekergy;

--
-- Name: FUNCTION sql_getitemsaction(integer); Type: COMMENT; Schema: public; Owner: ekergy
--

COMMENT ON FUNCTION sql_getitemsaction(integer) IS 'Function to get the goto items ';


--
-- Name: tspr_mcw; Type: TABLE; Schema: public; Owner: ekergy; Tablespace: 
--

CREATE TABLE tspr_mcw (
    mcw_id integer NOT NULL,
    item_id integer NOT NULL,
    condition character varying(200) NOT NULL,
    command character varying(50),
    type character varying(10) NOT NULL,
    "else" character varying(50),
    target character varying(250),
    code character varying(20),
    timewindow double precision DEFAULT 0 NOT NULL
);


ALTER TABLE public.tspr_mcw OWNER TO ekergy;

--
-- Name: TABLE tspr_mcw; Type: COMMENT; Schema: public; Owner: ekergy
--

COMMENT ON TABLE tspr_mcw IS 'Tabla para lamcenar la informacion de item tipo Monito, Control o Wait, (MCW) ';


--
-- Name: vitems_check; Type: VIEW; Schema: public; Owner: ekergy
--

CREATE VIEW vitems_check AS
    SELECT va.item_id, va.item_desc, va.item_order, va.instruction_id, va.item_cod, va.flag_active, va.item_type_id, va.item_type_cod, va.flag_inmediate, va.instruction_cod, va.instruction_index, va.step_id, va.continuous_action_flag, tm.mcw_id, tm.condition, tm.command, tm.type, tm."else", tm.target FROM (vitems va JOIN tspr_mcw tm USING (item_id)) WHERE ((tm.type)::text = 'check'::text);


ALTER TABLE public.vitems_check OWNER TO ekergy;

--
-- Name: sql_getitemscheck(integer); Type: FUNCTION; Schema: public; Owner: ekergy
--

CREATE FUNCTION sql_getitemscheck(integer) RETURNS SETOF vitems_check
    LANGUAGE sql STABLE
    AS $_$ SELECT * FROM  vitems_check WHERE (item_id =  $1); 
$_$;


ALTER FUNCTION public.sql_getitemscheck(integer) OWNER TO ekergy;

--
-- Name: FUNCTION sql_getitemscheck(integer); Type: COMMENT; Schema: public; Owner: ekergy
--

COMMENT ON FUNCTION sql_getitemscheck(integer) IS 'Function to get the check items ';


--
-- Name: tspr_goto; Type: TABLE; Schema: public; Owner: ekergy; Tablespace: 
--

CREATE TABLE tspr_goto (
    from_id integer NOT NULL,
    to_step_id integer NOT NULL,
    gotype_cod character varying(10) NOT NULL,
    final_step_id integer,
    goto_id integer NOT NULL
);


ALTER TABLE public.tspr_goto OWNER TO ekergy;

--
-- Name: vitems_goto; Type: VIEW; Schema: public; Owner: ekergy
--

CREATE VIEW vitems_goto AS
    SELECT ts.from_id, ts.to_step_id, ts.gotype_cod, ts.final_step_id, ts.goto_id, v.item_id, v.item_desc, v.item_order, v.instruction_id, v.item_cod, v.flag_active, v.item_type_id, v.item_type_cod, v.flag_inmediate, v.instruction_cod, v.instruction_index, v.step_id, v.continuous_action_flag FROM tspr_goto ts, vitems v WHERE (ts.from_id = v.item_id);


ALTER TABLE public.vitems_goto OWNER TO ekergy;

--
-- Name: sql_getitemsgoto(integer); Type: FUNCTION; Schema: public; Owner: ekergy
--

CREATE FUNCTION sql_getitemsgoto(integer) RETURNS SETOF vitems_goto
    LANGUAGE sql STABLE
    AS $_$ SELECT * FROM  vitems_goto WHERE (item_id =  $1); 
$_$;


ALTER FUNCTION public.sql_getitemsgoto(integer) OWNER TO ekergy;

--
-- Name: FUNCTION sql_getitemsgoto(integer); Type: COMMENT; Schema: public; Owner: ekergy
--

COMMENT ON FUNCTION sql_getitemsgoto(integer) IS 'Function to get the goto items ';


--
-- Name: vitems_mcw; Type: VIEW; Schema: public; Owner: ekergy
--

CREATE VIEW vitems_mcw AS
    SELECT va.item_id, va.item_desc, va.item_order, va.instruction_id, va.item_cod, va.flag_active, va.item_type_id, va.item_type_cod, va.flag_inmediate, va.instruction_cod, va.instruction_index, va.step_id, va.continuous_action_flag, tm.mcw_id, tm.condition, tm.command, tm.type, tm."else" FROM (vitems va JOIN tspr_mcw tm USING (item_id));


ALTER TABLE public.vitems_mcw OWNER TO ekergy;

--
-- Name: sql_getitemsmcw(integer); Type: FUNCTION; Schema: public; Owner: ekergy
--

CREATE FUNCTION sql_getitemsmcw(integer) RETURNS SETOF vitems_mcw
    LANGUAGE sql STABLE
    AS $_$ SELECT * FROM  vitems_mcw WHERE (item_id =  $1); 
$_$;


ALTER FUNCTION public.sql_getitemsmcw(integer) OWNER TO ekergy;

--
-- Name: FUNCTION sql_getitemsmcw(integer); Type: COMMENT; Schema: public; Owner: ekergy
--

COMMENT ON FUNCTION sql_getitemsmcw(integer) IS 'Function to get the monitor wait and control items ';


--
-- Name: tspr_message; Type: TABLE; Schema: public; Owner: ekergy; Tablespace: 
--

CREATE TABLE tspr_message (
    item_id integer NOT NULL,
    message text
);


ALTER TABLE public.tspr_message OWNER TO ekergy;

--
-- Name: vitems_message; Type: VIEW; Schema: public; Owner: ekergy
--

CREATE VIEW vitems_message AS
    SELECT va.item_id, va.item_desc, va.item_order, va.instruction_id, va.item_cod, va.flag_active, va.item_type_id, va.item_type_cod, va.flag_inmediate, va.instruction_cod, va.instruction_index, va.step_id, va.continuous_action_flag, tm.message FROM (vitems va JOIN tspr_message tm USING (item_id));


ALTER TABLE public.vitems_message OWNER TO ekergy;

--
-- Name: sql_getitemsmessage(integer); Type: FUNCTION; Schema: public; Owner: ekergy
--

CREATE FUNCTION sql_getitemsmessage(integer) RETURNS SETOF vitems_message
    LANGUAGE sql STABLE
    AS $_$ SELECT * FROM  vitems_message WHERE (item_id =  $1); 
$_$;


ALTER FUNCTION public.sql_getitemsmessage(integer) OWNER TO ekergy;

--
-- Name: FUNCTION sql_getitemsmessage(integer); Type: COMMENT; Schema: public; Owner: ekergy
--

COMMENT ON FUNCTION sql_getitemsmessage(integer) IS 'Function to get the message of an item ';


--
-- Name: vitems_monitor; Type: VIEW; Schema: public; Owner: ekergy
--

CREATE VIEW vitems_monitor AS
    SELECT va.item_id, va.item_desc, va.item_order, va.instruction_id, va.item_cod, va.flag_active, va.item_type_id, va.item_type_cod, va.flag_inmediate, va.instruction_cod, va.instruction_index, va.step_id, va.continuous_action_flag, tm.mcw_id, tm.condition, tm.command, tm.type, tm.code, tm.target, tm.timewindow FROM (vitems va JOIN tspr_mcw tm USING (item_id)) WHERE ((tm.type)::text = 'monitor'::text);


ALTER TABLE public.vitems_monitor OWNER TO ekergy;

--
-- Name: sql_getitemsmonitor(integer); Type: FUNCTION; Schema: public; Owner: ekergy
--

CREATE FUNCTION sql_getitemsmonitor(integer) RETURNS SETOF vitems_monitor
    LANGUAGE sql STABLE
    AS $_$ SELECT * FROM  vitems_monitor WHERE (item_id =  $1); 
$_$;


ALTER FUNCTION public.sql_getitemsmonitor(integer) OWNER TO ekergy;

--
-- Name: FUNCTION sql_getitemsmonitor(integer); Type: COMMENT; Schema: public; Owner: ekergy
--

COMMENT ON FUNCTION sql_getitemsmonitor(integer) IS 'Function to get the monitor items ';


--
-- Name: tspr_item_var; Type: TABLE; Schema: public; Owner: ekergy; Tablespace: 
--

CREATE TABLE tspr_item_var (
    item_id integer,
    var_spr_id integer NOT NULL,
    var_spr_cod character varying(20) NOT NULL
);


ALTER TABLE public.tspr_item_var OWNER TO ekergy;

--
-- Name: vitems_var; Type: VIEW; Schema: public; Owner: ekergy
--

CREATE VIEW vitems_var AS
    SELECT tspr_item_var.item_id, tspr_item_var.var_spr_id, tspr_item_var.var_spr_cod, vitems.item_desc, vitems.item_order, vitems.instruction_id, vitems.item_cod, vitems.flag_active, vitems.item_type_id, vitems.item_type_cod, vitems.flag_inmediate, vitems.instruction_cod, vitems.instruction_index, vitems.step_id, vitems.continuous_action_flag FROM (tspr_item_var JOIN vitems USING (item_id));


ALTER TABLE public.vitems_var OWNER TO ekergy;

--
-- Name: sql_getitemsvar(integer); Type: FUNCTION; Schema: public; Owner: ekergy
--

CREATE FUNCTION sql_getitemsvar(integer) RETURNS SETOF vitems_var
    LANGUAGE sql STABLE
    AS $_$ SELECT * FROM  vitems_var WHERE (item_id =  $1); 
$_$;


ALTER FUNCTION public.sql_getitemsvar(integer) OWNER TO ekergy;

--
-- Name: FUNCTION sql_getitemsvar(integer); Type: COMMENT; Schema: public; Owner: ekergy
--

COMMENT ON FUNCTION sql_getitemsvar(integer) IS 'Function to get the variables of an item ';


--
-- Name: vitems_wait; Type: VIEW; Schema: public; Owner: ekergy
--

CREATE VIEW vitems_wait AS
    SELECT va.item_id, va.item_desc, va.item_order, va.instruction_id, va.item_cod, va.flag_active, va.item_type_id, va.item_type_cod, va.flag_inmediate, va.instruction_cod, va.instruction_index, va.step_id, va.continuous_action_flag, tm.mcw_id, tm.condition, tm.command, tm.type, tm."else" FROM (vitems va JOIN tspr_mcw tm USING (item_id)) WHERE ((tm.type)::text = 'wait'::text);


ALTER TABLE public.vitems_wait OWNER TO ekergy;

--
-- Name: sql_getitemswait(integer); Type: FUNCTION; Schema: public; Owner: ekergy
--

CREATE FUNCTION sql_getitemswait(integer) RETURNS SETOF vitems_wait
    LANGUAGE sql STABLE
    AS $_$ SELECT * FROM  vitems_wait WHERE (item_id =  $1); 
$_$;


ALTER FUNCTION public.sql_getitemswait(integer) OWNER TO ekergy;

--
-- Name: FUNCTION sql_getitemswait(integer); Type: COMMENT; Schema: public; Owner: ekergy
--

COMMENT ON FUNCTION sql_getitemswait(integer) IS 'Function to get the wait items ';


--
-- Name: tspr_restart_monitors; Type: TABLE; Schema: public; Owner: ekergy; Tablespace: 
--

CREATE TABLE tspr_restart_monitors (
    item_id integer NOT NULL,
    path_id integer NOT NULL,
    simproc_id integer NOT NULL,
    event_id integer NOT NULL
);


ALTER TABLE public.tspr_restart_monitors OWNER TO ekergy;

--
-- Name: vrestartmonitors; Type: VIEW; Schema: public; Owner: ekergy
--

CREATE VIEW vrestartmonitors AS
    SELECT td.event_id, td.item_id, tb.instruction_id, tc.step_id, td.path_id, td.simproc_id, tb.continuous_action_flag FROM tspr_item ta, tspr_instruction tb, tspr_step tc, tspr_restart_monitors td WHERE (((td.item_id = ta.item_id) AND (tb.step_id = tc.step_id)) AND (ta.instruction_id = tb.instruction_id));


ALTER TABLE public.vrestartmonitors OWNER TO ekergy;

--
-- Name: sql_getmonitorsfromrestart(integer, integer); Type: FUNCTION; Schema: public; Owner: ekergy
--

CREATE FUNCTION sql_getmonitorsfromrestart(integer, integer) RETURNS SETOF vrestartmonitors
    LANGUAGE sql STABLE
    AS $_$ SELECT * FROM  vrestartmonitors WHERE path_id =  $1 and event_id = $2; 
$_$;


ALTER FUNCTION public.sql_getmonitorsfromrestart(integer, integer) OWNER TO ekergy;

--
-- Name: FUNCTION sql_getmonitorsfromrestart(integer, integer); Type: COMMENT; Schema: public; Owner: ekergy
--

COMMENT ON FUNCTION sql_getmonitorsfromrestart(integer, integer) IS 'Function to get Simproc Restart Info related with Monitors Execution ';


--
-- Name: tspr_procedure; Type: TABLE; Schema: public; Owner: ekergy; Tablespace: 
--

CREATE TABLE tspr_procedure (
    procedure_id integer NOT NULL,
    procedure_name character varying(150),
    procedure_desc character varying(250),
    procedure_cod character varying(50),
    comment character varying(5000),
    delay_load double precision,
    procedure_date timestamp without time zone DEFAULT now()
);


ALTER TABLE public.tspr_procedure OWNER TO ekergy;

--
-- Name: tspr_simproc_proc; Type: TABLE; Schema: public; Owner: ekergy; Tablespace: 
--

CREATE TABLE tspr_simproc_proc (
    simproc_id integer NOT NULL,
    procedure_id integer NOT NULL
);


ALTER TABLE public.tspr_simproc_proc OWNER TO ekergy;

--
-- Name: vprocess; Type: VIEW; Schema: public; Owner: ekergy
--

CREATE VIEW vprocess AS
    SELECT tsp.simproc_id, tp.procedure_id, tp.procedure_desc, tp.procedure_cod, tp.delay_load FROM tspr_procedure tp, tspr_simproc_proc tsp WHERE (tp.procedure_id = tsp.procedure_id);


ALTER TABLE public.vprocess OWNER TO ekergy;

--
-- Name: VIEW vprocess; Type: COMMENT; Schema: public; Owner: ekergy
--

COMMENT ON VIEW vprocess IS 'Vista con los procedimientos';


--
-- Name: sql_getprocedure(integer); Type: FUNCTION; Schema: public; Owner: ekergy
--

CREATE FUNCTION sql_getprocedure(integer) RETURNS SETOF vprocess
    LANGUAGE sql STABLE
    AS $_$ SELECT * FROM  vprocess WHERE (simproc_id =  $1); 
$_$;


ALTER FUNCTION public.sql_getprocedure(integer) OWNER TO ekergy;

--
-- Name: FUNCTION sql_getprocedure(integer); Type: COMMENT; Schema: public; Owner: ekergy
--

COMMENT ON FUNCTION sql_getprocedure(integer) IS 'Function to get the prodedure/s asociated with a simulation id';


--
-- Name: tspr_restart_params; Type: TABLE; Schema: public; Owner: ekergy; Tablespace: 
--

CREATE TABLE tspr_restart_params (
    path_id integer NOT NULL,
    simproc_id integer NOT NULL,
    master_sim_id integer NOT NULL,
    setpoint_id integer NOT NULL,
    current_poe_id integer NOT NULL,
    current_step_id integer NOT NULL,
    current_inst_id integer NOT NULL,
    restart_id integer NOT NULL,
    advance_inst_flag integer NOT NULL,
    end_poe_flag integer NOT NULL
);


ALTER TABLE public.tspr_restart_params OWNER TO ekergy;

--
-- Name: tspr_simproc; Type: TABLE; Schema: public; Owner: ekergy; Tablespace: 
--

CREATE TABLE tspr_simproc (
    simproc_id integer NOT NULL,
    simproc_name character varying(200),
    initial_time double precision,
    save_frequency real,
    save_restart_frequency double precision,
    simulation_name character varying(200),
    flag_validate smallint,
    simproc_date timestamp without time zone DEFAULT now() NOT NULL,
    end_time double precision,
    comm_time double precision,
    nominal_flag smallint
);


ALTER TABLE public.tspr_simproc OWNER TO ekergy;

--
-- Name: tspr_simproc_state; Type: TABLE; Schema: public; Owner: ekergy; Tablespace: 
--

CREATE TABLE tspr_simproc_state (
    "time" double precision NOT NULL,
    current_simproc_state character varying(50),
    simproc_id integer NOT NULL,
    path_id integer NOT NULL,
    setpoint_id integer NOT NULL,
    simproc_restart_id integer NOT NULL
);


ALTER TABLE public.tspr_simproc_state OWNER TO ekergy;

--
-- Name: vrestartinfo; Type: VIEW; Schema: public; Owner: ekergy
--

CREATE VIEW vrestartinfo AS
    SELECT ts.simulation_name, ts.comm_time, ts.simproc_name, ta."time", ta.current_simproc_state, ta.simproc_id, ta.path_id, tb.restart_id, tb.master_sim_id, tb.setpoint_id, tb.current_poe_id, tproc.procedure_cod, tb.current_step_id, tstep.step_cod, tb.current_inst_id, tinst.instruction_cod, tb.advance_inst_flag, tb.end_poe_flag FROM tspr_simproc ts, tspr_simproc_state ta, tspr_restart_params tb, tspr_procedure tproc, tspr_step tstep, tspr_instruction tinst WHERE ((((((ts.simproc_id = ta.simproc_id) AND (ta.path_id = tb.path_id)) AND (ta.setpoint_id = tb.setpoint_id)) AND (tb.current_poe_id = tproc.procedure_id)) AND (tb.current_step_id = tstep.step_id)) AND (tb.current_inst_id = tinst.instruction_id));


ALTER TABLE public.vrestartinfo OWNER TO ekergy;

--
-- Name: sql_getrestart(integer, double precision); Type: FUNCTION; Schema: public; Owner: ekergy
--

CREATE FUNCTION sql_getrestart(integer, double precision) RETURNS SETOF vrestartinfo
    LANGUAGE sql STABLE
    AS $_$ select  * from vrestartinfo where path_id = $1 and time= (select max(time) from vrestartinfo where path_id =$1 and time<=$2); 
$_$;


ALTER FUNCTION public.sql_getrestart(integer, double precision) OWNER TO ekergy;

--
-- Name: FUNCTION sql_getrestart(integer, double precision); Type: COMMENT; Schema: public; Owner: ekergy
--

COMMENT ON FUNCTION sql_getrestart(integer, double precision) IS 'Function to get restart info ';


--
-- Name: tspr_restart_state; Type: TABLE; Schema: public; Owner: ekergy; Tablespace: 
--

CREATE TABLE tspr_restart_state (
    dvl_cod character varying NOT NULL,
    restart_id integer NOT NULL,
    dvl_val character varying
);


ALTER TABLE public.tspr_restart_state OWNER TO ekergy;

--
-- Name: vrestart_state; Type: VIEW; Schema: public; Owner: ekergy
--

CREATE VIEW vrestart_state AS
    SELECT tspr_restart_state.dvl_cod, tspr_restart_state.restart_id, tspr_restart_state.dvl_val FROM tspr_restart_state;


ALTER TABLE public.vrestart_state OWNER TO ekergy;

--
-- Name: VIEW vrestart_state; Type: COMMENT; Schema: public; Owner: ekergy
--

COMMENT ON VIEW vrestart_state IS 'Restart State view';


--
-- Name: sql_getstatefromrestart(integer, character varying); Type: FUNCTION; Schema: public; Owner: ekergy
--

CREATE FUNCTION sql_getstatefromrestart(integer, character varying) RETURNS SETOF vrestart_state
    LANGUAGE sql STABLE
    AS $_$ SELECT * FROM  vrestart_state WHERE (restart_id =  $1) and (dvl_cod = $2) ; 
$_$;


ALTER FUNCTION public.sql_getstatefromrestart(integer, character varying) OWNER TO ekergy;

--
-- Name: FUNCTION sql_getstatefromrestart(integer, character varying); Type: COMMENT; Schema: public; Owner: ekergy
--

COMMENT ON FUNCTION sql_getstatefromrestart(integer, character varying) IS 'Function to get the check items ';


--
-- Name: tspr_skill_type; Type: TABLE; Schema: public; Owner: ekergy; Tablespace: 
--

CREATE TABLE tspr_skill_type (
    skill_id integer NOT NULL,
    skill_cod character varying(20) NOT NULL
);


ALTER TABLE public.tspr_skill_type OWNER TO ekergy;

--
-- Name: vsteps; Type: VIEW; Schema: public; Owner: ekergy
--

CREATE VIEW vsteps AS
    SELECT ts.step_cod, ts.step_desc, ts.step_id, ts.step_name, ts.debugging_level, ts.procedure_id, ts.index, tp.procedure_cod, tp.procedure_name, ts.skill_id, tk.skill_cod FROM tspr_skill_type tk, tspr_step ts, tspr_procedure tp WHERE ((tp.procedure_id = ts.procedure_id) AND (tk.skill_id = ts.skill_id));


ALTER TABLE public.vsteps OWNER TO ekergy;

--
-- Name: VIEW vsteps; Type: COMMENT; Schema: public; Owner: ekergy
--

COMMENT ON VIEW vsteps IS 'Vista con todos los pasos';


--
-- Name: sql_getsteps(integer); Type: FUNCTION; Schema: public; Owner: ekergy
--

CREATE FUNCTION sql_getsteps(integer) RETURNS SETOF vsteps
    LANGUAGE sql STABLE
    AS $_$ SELECT * FROM  vsteps WHERE (procedure_id =  $1) ORDER BY index; 
$_$;


ALTER FUNCTION public.sql_getsteps(integer) OWNER TO ekergy;

--
-- Name: FUNCTION sql_getsteps(integer); Type: COMMENT; Schema: public; Owner: ekergy
--

COMMENT ON FUNCTION sql_getsteps(integer) IS 'Function to get the steps of a procedure';


--
-- Name: pga_diagrams; Type: TABLE; Schema: public; Owner: ekergy; Tablespace: 
--

CREATE TABLE pga_diagrams (
    diagramname character varying(64) NOT NULL,
    diagramtables text,
    diagramlinks text
);


ALTER TABLE public.pga_diagrams OWNER TO ekergy;

--
-- Name: pga_forms; Type: TABLE; Schema: public; Owner: ekergy; Tablespace: 
--

CREATE TABLE pga_forms (
    formname character varying(64) NOT NULL,
    formsource text
);


ALTER TABLE public.pga_forms OWNER TO ekergy;

--
-- Name: pga_graphs; Type: TABLE; Schema: public; Owner: ekergy; Tablespace: 
--

CREATE TABLE pga_graphs (
    graphname character varying(64) NOT NULL,
    graphsource text,
    graphcode text
);


ALTER TABLE public.pga_graphs OWNER TO ekergy;

--
-- Name: pga_images; Type: TABLE; Schema: public; Owner: ekergy; Tablespace: 
--

CREATE TABLE pga_images (
    imagename character varying(64) NOT NULL,
    imagesource text
);


ALTER TABLE public.pga_images OWNER TO ekergy;

--
-- Name: pga_layout; Type: TABLE; Schema: public; Owner: ekergy; Tablespace: 
--

CREATE TABLE pga_layout (
    tablename character varying(64) NOT NULL,
    nrcols smallint,
    colnames text,
    colwidth text
);


ALTER TABLE public.pga_layout OWNER TO ekergy;

--
-- Name: pga_queries; Type: TABLE; Schema: public; Owner: ekergy; Tablespace: 
--

CREATE TABLE pga_queries (
    queryname character varying(64) NOT NULL,
    querytype character(1),
    querycommand text,
    querytables text,
    querylinks text,
    queryresults text,
    querycomments text
);


ALTER TABLE public.pga_queries OWNER TO ekergy;

--
-- Name: pga_reports; Type: TABLE; Schema: public; Owner: ekergy; Tablespace: 
--

CREATE TABLE pga_reports (
    reportname character varying(64) NOT NULL,
    reportsource text,
    reportbody text,
    reportprocs text,
    reportoptions text
);


ALTER TABLE public.pga_reports OWNER TO ekergy;

--
-- Name: pga_scripts; Type: TABLE; Schema: public; Owner: ekergy; Tablespace: 
--

CREATE TABLE pga_scripts (
    scriptname character varying(64) NOT NULL,
    scriptsource text
);


ALTER TABLE public.pga_scripts OWNER TO ekergy;

--
-- Name: sq_action; Type: SEQUENCE; Schema: public; Owner: ekergy
--

CREATE SEQUENCE sq_action
    START WITH 1
    INCREMENT BY 1
    NO MINVALUE
    NO MAXVALUE
    CACHE 1;


ALTER TABLE public.sq_action OWNER TO ekergy;

--
-- Name: sq_goto; Type: SEQUENCE; Schema: public; Owner: ekergy
--

CREATE SEQUENCE sq_goto
    START WITH 1
    INCREMENT BY 1
    NO MINVALUE
    NO MAXVALUE
    CACHE 1;


ALTER TABLE public.sq_goto OWNER TO ekergy;

--
-- Name: sq_instruction; Type: SEQUENCE; Schema: public; Owner: ekergy
--

CREATE SEQUENCE sq_instruction
    START WITH 1
    INCREMENT BY 1
    NO MINVALUE
    NO MAXVALUE
    CACHE 1;


ALTER TABLE public.sq_instruction OWNER TO ekergy;

--
-- Name: sq_item; Type: SEQUENCE; Schema: public; Owner: ekergy
--

CREATE SEQUENCE sq_item
    START WITH 1
    INCREMENT BY 1
    NO MINVALUE
    NO MAXVALUE
    CACHE 1;


ALTER TABLE public.sq_item OWNER TO ekergy;

--
-- Name: sq_item_var; Type: SEQUENCE; Schema: public; Owner: ekergy
--

CREATE SEQUENCE sq_item_var
    START WITH 1
    INCREMENT BY 1
    NO MINVALUE
    NO MAXVALUE
    CACHE 1;


ALTER TABLE public.sq_item_var OWNER TO ekergy;

--
-- Name: sq_mcw; Type: SEQUENCE; Schema: public; Owner: ekergy
--

CREATE SEQUENCE sq_mcw
    START WITH 1
    INCREMENT BY 1
    NO MINVALUE
    NO MAXVALUE
    CACHE 1;


ALTER TABLE public.sq_mcw OWNER TO ekergy;

--
-- Name: sq_procedure; Type: SEQUENCE; Schema: public; Owner: ekergy
--

CREATE SEQUENCE sq_procedure
    START WITH 1
    INCREMENT BY 1
    NO MINVALUE
    NO MAXVALUE
    CACHE 1;


ALTER TABLE public.sq_procedure OWNER TO ekergy;

--
-- Name: sq_restart; Type: SEQUENCE; Schema: public; Owner: ekergy
--

CREATE SEQUENCE sq_restart
    START WITH 1
    INCREMENT BY 1
    NO MINVALUE
    NO MAXVALUE
    CACHE 1;


ALTER TABLE public.sq_restart OWNER TO ekergy;

--
-- Name: sq_restart_index; Type: SEQUENCE; Schema: public; Owner: ekergy
--

CREATE SEQUENCE sq_restart_index
    START WITH 1
    INCREMENT BY 1
    NO MINVALUE
    NO MAXVALUE
    CACHE 1;


ALTER TABLE public.sq_restart_index OWNER TO ekergy;

--
-- Name: sq_simproc; Type: SEQUENCE; Schema: public; Owner: ekergy
--

CREATE SEQUENCE sq_simproc
    START WITH 1
    INCREMENT BY 1
    NO MINVALUE
    NO MAXVALUE
    CACHE 1;


ALTER TABLE public.sq_simproc OWNER TO ekergy;

--
-- Name: sq_step; Type: SEQUENCE; Schema: public; Owner: ekergy
--

CREATE SEQUENCE sq_step
    START WITH 1
    INCREMENT BY 1
    NO MINVALUE
    NO MAXVALUE
    CACHE 1;


ALTER TABLE public.sq_step OWNER TO ekergy;

--
-- Name: tspr_check_goto; Type: TABLE; Schema: public; Owner: ekergy; Tablespace: 
--

CREATE TABLE tspr_check_goto (
    mcw_id integer NOT NULL,
    goto_id integer NOT NULL,
    flag_else integer DEFAULT 0 NOT NULL
);


ALTER TABLE public.tspr_check_goto OWNER TO ekergy;

--
-- Name: tspr_currstate_var; Type: TABLE; Schema: public; Owner: ekergy; Tablespace: 
--

CREATE TABLE tspr_currstate_var (
    simproc_id integer NOT NULL,
    var_spr_id integer NOT NULL,
    curr_state_id integer NOT NULL,
    "time" double precision NOT NULL,
    curr_value double precision
);


ALTER TABLE public.tspr_currstate_var OWNER TO ekergy;

--
-- Name: tspr_mcw_var; Type: TABLE; Schema: public; Owner: ekergy; Tablespace: 
--

CREATE TABLE tspr_mcw_var (
    mcw_id integer NOT NULL,
    var_spr_id integer NOT NULL
);


ALTER TABLE public.tspr_mcw_var OWNER TO ekergy;

--
-- Name: tspr_operator; Type: TABLE; Schema: public; Owner: ekergy; Tablespace: 
--

CREATE TABLE tspr_operator (
    operator_id integer NOT NULL,
    operator_cod character varying(20) NOT NULL,
    skill_id integer,
    simproc_id integer NOT NULL,
    slowness double precision NOT NULL
);


ALTER TABLE public.tspr_operator OWNER TO ekergy;

--
-- Name: tspr_operator_stack; Type: TABLE; Schema: public; Owner: ekergy; Tablespace: 
--

CREATE TABLE tspr_operator_stack (
    operator_id integer NOT NULL,
    item_id integer NOT NULL,
    total_load double precision DEFAULT 0,
    wait_time integer DEFAULT 0,
    "time" double precision NOT NULL
);


ALTER TABLE public.tspr_operator_stack OWNER TO ekergy;

--
-- Name: tspr_simproc_instruction; Type: TABLE; Schema: public; Owner: ekergy; Tablespace: 
--

CREATE TABLE tspr_simproc_instruction (
    simproc_id integer NOT NULL,
    "time" double precision NOT NULL,
    instruction_id integer NOT NULL,
    state character varying(50),
    value double precision
);


ALTER TABLE public.tspr_simproc_instruction OWNER TO ekergy;

--
-- Name: tspr_simproc_item; Type: TABLE; Schema: public; Owner: ekergy; Tablespace: 
--

CREATE TABLE tspr_simproc_item (
    simproc_id integer NOT NULL,
    "time" double precision NOT NULL,
    item_id integer NOT NULL,
    value double precision NOT NULL,
    state character varying(20) NOT NULL
);


ALTER TABLE public.tspr_simproc_item OWNER TO ekergy;

--
-- Name: tspr_simproc_step; Type: TABLE; Schema: public; Owner: ekergy; Tablespace: 
--

CREATE TABLE tspr_simproc_step (
    "time" double precision NOT NULL,
    state character varying(20),
    simproc_id integer NOT NULL,
    step_id integer NOT NULL
);


ALTER TABLE public.tspr_simproc_step OWNER TO ekergy;

--
-- Name: tspr_simproc_tree; Type: TABLE; Schema: public; Owner: ekergy; Tablespace: 
--

CREATE TABLE tspr_simproc_tree (
    simproc_id integer NOT NULL,
    simproc_par_id integer NOT NULL,
    nominal_flag smallint NOT NULL,
    node_code character varying(50) NOT NULL,
    hev_history character varying(300)
);


ALTER TABLE public.tspr_simproc_tree OWNER TO ekergy;

--
-- Name: tspr_simproc_var; Type: TABLE; Schema: public; Owner: ekergy; Tablespace: 
--

CREATE TABLE tspr_simproc_var (
    simproc_id integer NOT NULL,
    var_spr_id integer NOT NULL,
    svl_flag smallint
);


ALTER TABLE public.tspr_simproc_var OWNER TO ekergy;

--
-- Name: tspr_statemap; Type: TABLE; Schema: public; Owner: ekergy; Tablespace: 
--

CREATE TABLE tspr_statemap (
    simproc_id integer NOT NULL,
    var_spr_id integer NOT NULL,
    state_id integer NOT NULL,
    var_state_cod character varying(40),
    var_state_condition character varying(40),
    var_state_valueth double precision
);


ALTER TABLE public.tspr_statemap OWNER TO ekergy;

--
-- Name: tspr_varmap; Type: TABLE; Schema: public; Owner: ekergy; Tablespace: 
--

CREATE TABLE tspr_varmap (
    simproc_id integer NOT NULL,
    var_spr_id integer NOT NULL,
    var_sim_cod character varying(40),
    var_bab_cod character varying(40)
);


ALTER TABLE public.tspr_varmap OWNER TO ekergy;

--
-- Name: tspr_xml_procedure; Type: TABLE; Schema: public; Owner: ekergy; Tablespace: 
--

CREATE TABLE tspr_xml_procedure (
    xml_procedure_id integer NOT NULL,
    procedure_id integer NOT NULL,
    xml_procedure_name character varying(100) NOT NULL,
    xml_procedure_date date NOT NULL,
    xml_file text NOT NULL
);


ALTER TABLE public.tspr_xml_procedure OWNER TO ekergy;

--
-- Name: tsprh_xml_procedure; Type: TABLE; Schema: public; Owner: ekergy; Tablespace: 
--

CREATE TABLE tsprh_xml_procedure (
    xml_procedure_id integer NOT NULL,
    procedure_id integer NOT NULL,
    xml_procedure_name character varying(100) NOT NULL,
    add_date date NOT NULL,
    xml_file text NOT NULL,
    del_date date NOT NULL
);


ALTER TABLE public.tsprh_xml_procedure OWNER TO ekergy;

--
-- Name: vsimprochistory; Type: VIEW; Schema: public; Owner: ekergy
--

CREATE VIEW vsimprochistory AS
    SELECT ta.simproc_id, ta.initial_time, ta.simproc_date, tb.node_code, tb.hev_history FROM tspr_simproc ta, tspr_simproc_tree tb WHERE (ta.simproc_id = tb.simproc_id);


ALTER TABLE public.vsimprochistory OWNER TO ekergy;

--
-- Name: pga_diagrams_pkey; Type: CONSTRAINT; Schema: public; Owner: ekergy; Tablespace: 
--

ALTER TABLE ONLY pga_diagrams
    ADD CONSTRAINT pga_diagrams_pkey PRIMARY KEY (diagramname);


--
-- Name: pga_forms_pkey; Type: CONSTRAINT; Schema: public; Owner: ekergy; Tablespace: 
--

ALTER TABLE ONLY pga_forms
    ADD CONSTRAINT pga_forms_pkey PRIMARY KEY (formname);


--
-- Name: pga_graphs_pkey; Type: CONSTRAINT; Schema: public; Owner: ekergy; Tablespace: 
--

ALTER TABLE ONLY pga_graphs
    ADD CONSTRAINT pga_graphs_pkey PRIMARY KEY (graphname);


--
-- Name: pga_images_pkey; Type: CONSTRAINT; Schema: public; Owner: ekergy; Tablespace: 
--

ALTER TABLE ONLY pga_images
    ADD CONSTRAINT pga_images_pkey PRIMARY KEY (imagename);


--
-- Name: pga_layout_pkey; Type: CONSTRAINT; Schema: public; Owner: ekergy; Tablespace: 
--

ALTER TABLE ONLY pga_layout
    ADD CONSTRAINT pga_layout_pkey PRIMARY KEY (tablename);


--
-- Name: pga_queries_pkey; Type: CONSTRAINT; Schema: public; Owner: ekergy; Tablespace: 
--

ALTER TABLE ONLY pga_queries
    ADD CONSTRAINT pga_queries_pkey PRIMARY KEY (queryname);


--
-- Name: pga_reports_pkey; Type: CONSTRAINT; Schema: public; Owner: ekergy; Tablespace: 
--

ALTER TABLE ONLY pga_reports
    ADD CONSTRAINT pga_reports_pkey PRIMARY KEY (reportname);


--
-- Name: pga_scripts_pkey; Type: CONSTRAINT; Schema: public; Owner: ekergy; Tablespace: 
--

ALTER TABLE ONLY pga_scripts
    ADD CONSTRAINT pga_scripts_pkey PRIMARY KEY (scriptname);


--
-- Name: pkpr_simproc_step; Type: CONSTRAINT; Schema: public; Owner: ekergy; Tablespace: 
--

ALTER TABLE ONLY tspr_simproc_step
    ADD CONSTRAINT pkpr_simproc_step PRIMARY KEY (simproc_id, "time", step_id);


--
-- Name: pkspr_ckeck_goto; Type: CONSTRAINT; Schema: public; Owner: ekergy; Tablespace: 
--

ALTER TABLE ONLY tspr_check_goto
    ADD CONSTRAINT pkspr_ckeck_goto PRIMARY KEY (mcw_id, flag_else);


--
-- Name: pkspr_currstate_var; Type: CONSTRAINT; Schema: public; Owner: ekergy; Tablespace: 
--

ALTER TABLE ONLY tspr_currstate_var
    ADD CONSTRAINT pkspr_currstate_var PRIMARY KEY (simproc_id, var_spr_id);


--
-- Name: pkspr_goto; Type: CONSTRAINT; Schema: public; Owner: ekergy; Tablespace: 
--

ALTER TABLE ONLY tspr_goto
    ADD CONSTRAINT pkspr_goto PRIMARY KEY (goto_id);


--
-- Name: pkspr_item_action; Type: CONSTRAINT; Schema: public; Owner: ekergy; Tablespace: 
--

ALTER TABLE ONLY tspr_item_action
    ADD CONSTRAINT pkspr_item_action PRIMARY KEY (action_id);


--
-- Name: pkspr_mcw; Type: CONSTRAINT; Schema: public; Owner: ekergy; Tablespace: 
--

ALTER TABLE ONLY tspr_mcw
    ADD CONSTRAINT pkspr_mcw PRIMARY KEY (mcw_id);


--
-- Name: pkspr_mcw_var; Type: CONSTRAINT; Schema: public; Owner: ekergy; Tablespace: 
--

ALTER TABLE ONLY tspr_mcw_var
    ADD CONSTRAINT pkspr_mcw_var PRIMARY KEY (mcw_id, var_spr_id);


--
-- Name: pkspr_message; Type: CONSTRAINT; Schema: public; Owner: ekergy; Tablespace: 
--

ALTER TABLE ONLY tspr_message
    ADD CONSTRAINT pkspr_message PRIMARY KEY (item_id);


--
-- Name: pkspr_procedure; Type: CONSTRAINT; Schema: public; Owner: ekergy; Tablespace: 
--

ALTER TABLE ONLY tspr_procedure
    ADD CONSTRAINT pkspr_procedure PRIMARY KEY (procedure_id);


--
-- Name: pkspr_simproc_instruction; Type: CONSTRAINT; Schema: public; Owner: ekergy; Tablespace: 
--

ALTER TABLE ONLY tspr_simproc_instruction
    ADD CONSTRAINT pkspr_simproc_instruction PRIMARY KEY (simproc_id, "time", instruction_id);


--
-- Name: pkspr_simproc_item; Type: CONSTRAINT; Schema: public; Owner: ekergy; Tablespace: 
--

ALTER TABLE ONLY tspr_simproc_item
    ADD CONSTRAINT pkspr_simproc_item PRIMARY KEY (simproc_id, "time", item_id);


--
-- Name: pkspr_simproc_var; Type: CONSTRAINT; Schema: public; Owner: ekergy; Tablespace: 
--

ALTER TABLE ONLY tspr_simproc_var
    ADD CONSTRAINT pkspr_simproc_var PRIMARY KEY (simproc_id, var_spr_id);


--
-- Name: pkspr_skill_type; Type: CONSTRAINT; Schema: public; Owner: ekergy; Tablespace: 
--

ALTER TABLE ONLY tspr_skill_type
    ADD CONSTRAINT pkspr_skill_type PRIMARY KEY (skill_id);


--
-- Name: pkspr_statemap; Type: CONSTRAINT; Schema: public; Owner: ekergy; Tablespace: 
--

ALTER TABLE ONLY tspr_statemap
    ADD CONSTRAINT pkspr_statemap PRIMARY KEY (simproc_id, var_spr_id);


--
-- Name: pkspr_step; Type: CONSTRAINT; Schema: public; Owner: ekergy; Tablespace: 
--

ALTER TABLE ONLY tspr_step
    ADD CONSTRAINT pkspr_step PRIMARY KEY (step_id);


--
-- Name: pkspr_varmap; Type: CONSTRAINT; Schema: public; Owner: ekergy; Tablespace: 
--

ALTER TABLE ONLY tspr_varmap
    ADD CONSTRAINT pkspr_varmap PRIMARY KEY (simproc_id, var_spr_id);


--
-- Name: pkspr_xml_procedure; Type: CONSTRAINT; Schema: public; Owner: ekergy; Tablespace: 
--

ALTER TABLE ONLY tspr_xml_procedure
    ADD CONSTRAINT pkspr_xml_procedure PRIMARY KEY (xml_procedure_id);


--
-- Name: pksprh_xml_procedure; Type: CONSTRAINT; Schema: public; Owner: ekergy; Tablespace: 
--

ALTER TABLE ONLY tsprh_xml_procedure
    ADD CONSTRAINT pksprh_xml_procedure PRIMARY KEY (xml_procedure_id);


--
-- Name: pktspr_action_type; Type: CONSTRAINT; Schema: public; Owner: ekergy; Tablespace: 
--

ALTER TABLE ONLY tspr_action_type
    ADD CONSTRAINT pktspr_action_type PRIMARY KEY (action_type_id);


--
-- Name: pktspr_instruction; Type: CONSTRAINT; Schema: public; Owner: ekergy; Tablespace: 
--

ALTER TABLE ONLY tspr_instruction
    ADD CONSTRAINT pktspr_instruction PRIMARY KEY (instruction_id);


--
-- Name: pktspr_item; Type: CONSTRAINT; Schema: public; Owner: ekergy; Tablespace: 
--

ALTER TABLE ONLY tspr_item
    ADD CONSTRAINT pktspr_item PRIMARY KEY (item_id);


--
-- Name: pktspr_item_type; Type: CONSTRAINT; Schema: public; Owner: ekergy; Tablespace: 
--

ALTER TABLE ONLY tspr_item_type
    ADD CONSTRAINT pktspr_item_type PRIMARY KEY (item_type_id);


--
-- Name: pktspr_item_var; Type: CONSTRAINT; Schema: public; Owner: ekergy; Tablespace: 
--

ALTER TABLE ONLY tspr_item_var
    ADD CONSTRAINT pktspr_item_var PRIMARY KEY (var_spr_id);


--
-- Name: pktspr_operator; Type: CONSTRAINT; Schema: public; Owner: ekergy; Tablespace: 
--

ALTER TABLE ONLY tspr_operator
    ADD CONSTRAINT pktspr_operator PRIMARY KEY (operator_id);


--
-- Name: pktspr_restart_params; Type: CONSTRAINT; Schema: public; Owner: ekergy; Tablespace: 
--

ALTER TABLE ONLY tspr_restart_params
    ADD CONSTRAINT pktspr_restart_params PRIMARY KEY (restart_id);


--
-- Name: pktspr_restart_state; Type: CONSTRAINT; Schema: public; Owner: ekergy; Tablespace: 
--

ALTER TABLE ONLY tspr_restart_state
    ADD CONSTRAINT pktspr_restart_state PRIMARY KEY (restart_id, dvl_cod);


--
-- Name: pktspr_simproc; Type: CONSTRAINT; Schema: public; Owner: ekergy; Tablespace: 
--

ALTER TABLE ONLY tspr_simproc
    ADD CONSTRAINT pktspr_simproc PRIMARY KEY (simproc_id);


--
-- Name: pktspr_simproc_proc; Type: CONSTRAINT; Schema: public; Owner: ekergy; Tablespace: 
--

ALTER TABLE ONLY tspr_simproc_proc
    ADD CONSTRAINT pktspr_simproc_proc PRIMARY KEY (simproc_id, procedure_id);


--
-- Name: pktspr_simproc_state; Type: CONSTRAINT; Schema: public; Owner: ekergy; Tablespace: 
--

ALTER TABLE ONLY tspr_simproc_state
    ADD CONSTRAINT pktspr_simproc_state PRIMARY KEY (setpoint_id, simproc_restart_id);


--
-- Name: pktspr_simproc_tree; Type: CONSTRAINT; Schema: public; Owner: ekergy; Tablespace: 
--

ALTER TABLE ONLY tspr_simproc_tree
    ADD CONSTRAINT pktspr_simproc_tree PRIMARY KEY (simproc_id);


--
-- Name: ukspr_item_order; Type: CONSTRAINT; Schema: public; Owner: ekergy; Tablespace: 
--

ALTER TABLE ONLY tspr_item
    ADD CONSTRAINT ukspr_item_order UNIQUE (instruction_id, item_order);


--
-- Name: pkspr_simproc_item2; Type: INDEX; Schema: public; Owner: ekergy; Tablespace: 
--

CREATE UNIQUE INDEX pkspr_simproc_item2 ON tspr_simproc_item USING btree (simproc_id, "time", item_id);


--
-- Name: pkspr_simproc_step; Type: INDEX; Schema: public; Owner: ekergy; Tablespace: 
--

CREATE UNIQUE INDEX pkspr_simproc_step ON tspr_simproc_step USING btree (simproc_id, "time", step_id);


--
-- Name: pktspr_procedure; Type: INDEX; Schema: public; Owner: ekergy; Tablespace: 
--

CREATE UNIQUE INDEX pktspr_procedure ON tspr_procedure USING btree (procedure_id);


--
-- Name: spc_step_index_res; Type: INDEX; Schema: public; Owner: ekergy; Tablespace: 
--

CREATE UNIQUE INDEX spc_step_index_res ON tspr_step USING btree (procedure_id, index);


--
-- Name: tbab_block_pkey; Type: INDEX; Schema: public; Owner: ekergy; Tablespace: 
--

CREATE UNIQUE INDEX tbab_block_pkey ON tspr_step USING btree (step_id);


--
-- Name: ukbab_block_code; Type: INDEX; Schema: public; Owner: ekergy; Tablespace: 
--

CREATE UNIQUE INDEX ukbab_block_code ON tspr_step USING btree (procedure_id, step_cod);


--
-- Name: ukspr_xml_procedure; Type: INDEX; Schema: public; Owner: ekergy; Tablespace: 
--

CREATE UNIQUE INDEX ukspr_xml_procedure ON tspr_xml_procedure USING btree (xml_procedure_name);


--
-- Name: uktspr_procedure1; Type: INDEX; Schema: public; Owner: ekergy; Tablespace: 
--

CREATE UNIQUE INDEX uktspr_procedure1 ON tspr_procedure USING btree (procedure_cod);


--
-- Name: uktspr_simproc; Type: INDEX; Schema: public; Owner: ekergy; Tablespace: 
--

CREATE UNIQUE INDEX uktspr_simproc ON tspr_simproc USING btree (simproc_name);


--
-- Name: xpktspr_action_type; Type: INDEX; Schema: public; Owner: ekergy; Tablespace: 
--

CREATE UNIQUE INDEX xpktspr_action_type ON tspr_action_type USING btree (action_type_id);


--
-- Name: xpktspr_check_goto; Type: INDEX; Schema: public; Owner: ekergy; Tablespace: 
--

CREATE UNIQUE INDEX xpktspr_check_goto ON tspr_check_goto USING btree (mcw_id);


--
-- Name: xpktspr_instruction; Type: INDEX; Schema: public; Owner: ekergy; Tablespace: 
--

CREATE UNIQUE INDEX xpktspr_instruction ON tspr_instruction USING btree (instruction_id);


--
-- Name: xpktspr_item; Type: INDEX; Schema: public; Owner: ekergy; Tablespace: 
--

CREATE UNIQUE INDEX xpktspr_item ON tspr_item USING btree (item_id);


--
-- Name: xpktspr_item_var; Type: INDEX; Schema: public; Owner: ekergy; Tablespace: 
--

CREATE UNIQUE INDEX xpktspr_item_var ON tspr_item_var USING btree (var_spr_id);


--
-- Name: xpktspr_operator; Type: INDEX; Schema: public; Owner: ekergy; Tablespace: 
--

CREATE UNIQUE INDEX xpktspr_operator ON tspr_operator USING btree (operator_id);


--
-- Name: xpktspr_restart_params; Type: INDEX; Schema: public; Owner: ekergy; Tablespace: 
--

CREATE UNIQUE INDEX xpktspr_restart_params ON tspr_restart_params USING btree (setpoint_id);


--
-- Name: xpktspr_simproc; Type: INDEX; Schema: public; Owner: ekergy; Tablespace: 
--

CREATE UNIQUE INDEX xpktspr_simproc ON tspr_simproc USING btree (simproc_id);


--
-- Name: xpktspr_simproc_proc; Type: INDEX; Schema: public; Owner: ekergy; Tablespace: 
--

CREATE UNIQUE INDEX xpktspr_simproc_proc ON tspr_simproc_proc USING btree (simproc_id, procedure_id);


--
-- Name: xpktspr_simproc_tree; Type: INDEX; Schema: public; Owner: ekergy; Tablespace: 
--

CREATE UNIQUE INDEX xpktspr_simproc_tree ON tspr_simproc_tree USING btree (simproc_id);


--
-- Name: xpktspr_simproc_var; Type: INDEX; Schema: public; Owner: ekergy; Tablespace: 
--

CREATE UNIQUE INDEX xpktspr_simproc_var ON tspr_simproc_var USING btree (var_spr_id);


--
-- Name: xpktspr_skill_type; Type: INDEX; Schema: public; Owner: ekergy; Tablespace: 
--

CREATE UNIQUE INDEX xpktspr_skill_type ON tspr_skill_type USING btree (skill_id);


--
-- Name: fkspr_check_goto1; Type: FK CONSTRAINT; Schema: public; Owner: ekergy
--

ALTER TABLE ONLY tspr_check_goto
    ADD CONSTRAINT fkspr_check_goto1 FOREIGN KEY (mcw_id) REFERENCES tspr_mcw(mcw_id) ON UPDATE CASCADE ON DELETE CASCADE;


--
-- Name: fkspr_check_goto2; Type: FK CONSTRAINT; Schema: public; Owner: ekergy
--

ALTER TABLE ONLY tspr_check_goto
    ADD CONSTRAINT fkspr_check_goto2 FOREIGN KEY (goto_id) REFERENCES tspr_goto(goto_id) ON UPDATE CASCADE ON DELETE CASCADE;


--
-- Name: fkspr_currstate_var1; Type: FK CONSTRAINT; Schema: public; Owner: ekergy
--

ALTER TABLE ONLY tspr_currstate_var
    ADD CONSTRAINT fkspr_currstate_var1 FOREIGN KEY (simproc_id) REFERENCES tspr_simproc(simproc_id);


--
-- Name: fkspr_currstate_var2; Type: FK CONSTRAINT; Schema: public; Owner: ekergy
--

ALTER TABLE ONLY tspr_currstate_var
    ADD CONSTRAINT fkspr_currstate_var2 FOREIGN KEY (var_spr_id) REFERENCES tspr_simproc_var(var_spr_id);


--
-- Name: fkspr_goto1; Type: FK CONSTRAINT; Schema: public; Owner: ekergy
--

ALTER TABLE ONLY tspr_goto
    ADD CONSTRAINT fkspr_goto1 FOREIGN KEY (from_id) REFERENCES tspr_item(item_id);


--
-- Name: fkspr_goto2bis; Type: FK CONSTRAINT; Schema: public; Owner: ekergy
--

ALTER TABLE ONLY tspr_goto
    ADD CONSTRAINT fkspr_goto2bis FOREIGN KEY (to_step_id) REFERENCES tspr_step(step_id) ON DELETE CASCADE;


--
-- Name: fkspr_goto3; Type: FK CONSTRAINT; Schema: public; Owner: ekergy
--

ALTER TABLE ONLY tspr_goto
    ADD CONSTRAINT fkspr_goto3 FOREIGN KEY (final_step_id) REFERENCES tspr_step(step_id) ON UPDATE CASCADE ON DELETE CASCADE;


--
-- Name: fkspr_item1; Type: FK CONSTRAINT; Schema: public; Owner: ekergy
--

ALTER TABLE ONLY tspr_item
    ADD CONSTRAINT fkspr_item1 FOREIGN KEY (item_type_id) REFERENCES tspr_item_type(item_type_id);


--
-- Name: fkspr_item_action1; Type: FK CONSTRAINT; Schema: public; Owner: ekergy
--

ALTER TABLE ONLY tspr_item_action
    ADD CONSTRAINT fkspr_item_action1 FOREIGN KEY (item_id) REFERENCES tspr_item(item_id) ON UPDATE CASCADE ON DELETE CASCADE;


--
-- Name: fkspr_item_action2; Type: FK CONSTRAINT; Schema: public; Owner: ekergy
--

ALTER TABLE ONLY tspr_item_action
    ADD CONSTRAINT fkspr_item_action2 FOREIGN KEY (action_type_id) REFERENCES tspr_action_type(action_type_id) ON UPDATE CASCADE ON DELETE CASCADE;


--
-- Name: fkspr_item_var1; Type: FK CONSTRAINT; Schema: public; Owner: ekergy
--

ALTER TABLE ONLY tspr_item_var
    ADD CONSTRAINT fkspr_item_var1 FOREIGN KEY (item_id) REFERENCES tspr_item(item_id) ON UPDATE CASCADE ON DELETE CASCADE;


--
-- Name: fkspr_mcw1; Type: FK CONSTRAINT; Schema: public; Owner: ekergy
--

ALTER TABLE ONLY tspr_mcw
    ADD CONSTRAINT fkspr_mcw1 FOREIGN KEY (item_id) REFERENCES tspr_item(item_id) ON UPDATE CASCADE ON DELETE CASCADE;


--
-- Name: fkspr_mcw_var1; Type: FK CONSTRAINT; Schema: public; Owner: ekergy
--

ALTER TABLE ONLY tspr_mcw_var
    ADD CONSTRAINT fkspr_mcw_var1 FOREIGN KEY (mcw_id) REFERENCES tspr_mcw(mcw_id) ON UPDATE CASCADE ON DELETE CASCADE;


--
-- Name: fkspr_mcw_var2; Type: FK CONSTRAINT; Schema: public; Owner: ekergy
--

ALTER TABLE ONLY tspr_mcw_var
    ADD CONSTRAINT fkspr_mcw_var2 FOREIGN KEY (var_spr_id) REFERENCES tspr_item_var(var_spr_id) ON UPDATE CASCADE ON DELETE CASCADE;


--
-- Name: fkspr_message1; Type: FK CONSTRAINT; Schema: public; Owner: ekergy
--

ALTER TABLE ONLY tspr_message
    ADD CONSTRAINT fkspr_message1 FOREIGN KEY (item_id) REFERENCES tspr_item(item_id) ON UPDATE CASCADE ON DELETE CASCADE;


--
-- Name: fkspr_simproc_instruction1; Type: FK CONSTRAINT; Schema: public; Owner: ekergy
--

ALTER TABLE ONLY tspr_simproc_instruction
    ADD CONSTRAINT fkspr_simproc_instruction1 FOREIGN KEY (instruction_id) REFERENCES tspr_instruction(instruction_id);


--
-- Name: fkspr_simproc_instruction2; Type: FK CONSTRAINT; Schema: public; Owner: ekergy
--

ALTER TABLE ONLY tspr_simproc_instruction
    ADD CONSTRAINT fkspr_simproc_instruction2 FOREIGN KEY (simproc_id) REFERENCES tspr_simproc(simproc_id);


--
-- Name: fkspr_simproc_item1; Type: FK CONSTRAINT; Schema: public; Owner: ekergy
--

ALTER TABLE ONLY tspr_simproc_item
    ADD CONSTRAINT fkspr_simproc_item1 FOREIGN KEY (item_id) REFERENCES tspr_item(item_id);


--
-- Name: fkspr_simproc_item2; Type: FK CONSTRAINT; Schema: public; Owner: ekergy
--

ALTER TABLE ONLY tspr_simproc_item
    ADD CONSTRAINT fkspr_simproc_item2 FOREIGN KEY (simproc_id) REFERENCES tspr_simproc(simproc_id);


--
-- Name: fkspr_simproc_var1; Type: FK CONSTRAINT; Schema: public; Owner: ekergy
--

ALTER TABLE ONLY tspr_simproc_var
    ADD CONSTRAINT fkspr_simproc_var1 FOREIGN KEY (simproc_id) REFERENCES tspr_simproc(simproc_id);


--
-- Name: fkspr_statemap1; Type: FK CONSTRAINT; Schema: public; Owner: ekergy
--

ALTER TABLE ONLY tspr_statemap
    ADD CONSTRAINT fkspr_statemap1 FOREIGN KEY (simproc_id) REFERENCES tspr_simproc(simproc_id);


--
-- Name: fkspr_statemap2; Type: FK CONSTRAINT; Schema: public; Owner: ekergy
--

ALTER TABLE ONLY tspr_statemap
    ADD CONSTRAINT fkspr_statemap2 FOREIGN KEY (var_spr_id) REFERENCES tspr_simproc_var(var_spr_id);


--
-- Name: fkspr_step1; Type: FK CONSTRAINT; Schema: public; Owner: ekergy
--

ALTER TABLE ONLY tspr_step
    ADD CONSTRAINT fkspr_step1 FOREIGN KEY (procedure_id) REFERENCES tspr_procedure(procedure_id) ON UPDATE CASCADE ON DELETE CASCADE;


--
-- Name: fkspr_step2; Type: FK CONSTRAINT; Schema: public; Owner: ekergy
--

ALTER TABLE ONLY tspr_step
    ADD CONSTRAINT fkspr_step2 FOREIGN KEY (skill_id) REFERENCES tspr_skill_type(skill_id) ON UPDATE RESTRICT ON DELETE RESTRICT;


--
-- Name: fkspr_varmap1; Type: FK CONSTRAINT; Schema: public; Owner: ekergy
--

ALTER TABLE ONLY tspr_varmap
    ADD CONSTRAINT fkspr_varmap1 FOREIGN KEY (simproc_id) REFERENCES tspr_simproc(simproc_id);


--
-- Name: fkspr_varmap2; Type: FK CONSTRAINT; Schema: public; Owner: ekergy
--

ALTER TABLE ONLY tspr_varmap
    ADD CONSTRAINT fkspr_varmap2 FOREIGN KEY (var_spr_id) REFERENCES tspr_simproc_var(var_spr_id);


--
-- Name: fksprh_xml_procedure; Type: FK CONSTRAINT; Schema: public; Owner: ekergy
--

ALTER TABLE ONLY tsprh_xml_procedure
    ADD CONSTRAINT fksprh_xml_procedure FOREIGN KEY (xml_procedure_id) REFERENCES tspr_xml_procedure(xml_procedure_id);


--
-- Name: fktspr_restart_monitors1; Type: FK CONSTRAINT; Schema: public; Owner: ekergy
--

ALTER TABLE ONLY tspr_restart_monitors
    ADD CONSTRAINT fktspr_restart_monitors1 FOREIGN KEY (simproc_id) REFERENCES tspr_simproc(simproc_id);


--
-- Name: fktspr_restart_params1; Type: FK CONSTRAINT; Schema: public; Owner: ekergy
--

ALTER TABLE ONLY tspr_restart_params
    ADD CONSTRAINT fktspr_restart_params1 FOREIGN KEY (simproc_id) REFERENCES tspr_simproc(simproc_id);


--
-- Name: fktspr_simproc_proc1; Type: FK CONSTRAINT; Schema: public; Owner: ekergy
--

ALTER TABLE ONLY tspr_simproc_proc
    ADD CONSTRAINT fktspr_simproc_proc1 FOREIGN KEY (simproc_id) REFERENCES tspr_simproc(simproc_id);


--
-- Name: fktspr_simproc_state1; Type: FK CONSTRAINT; Schema: public; Owner: ekergy
--

ALTER TABLE ONLY tspr_simproc_state
    ADD CONSTRAINT fktspr_simproc_state1 FOREIGN KEY (simproc_id) REFERENCES tspr_simproc(simproc_id);


--
-- Name: r_291; Type: FK CONSTRAINT; Schema: public; Owner: ekergy
--

ALTER TABLE ONLY tspr_instruction
    ADD CONSTRAINT r_291 FOREIGN KEY (step_id) REFERENCES tspr_step(step_id);


--
-- Name: r_294; Type: FK CONSTRAINT; Schema: public; Owner: ekergy
--

ALTER TABLE ONLY tspr_item
    ADD CONSTRAINT r_294 FOREIGN KEY (instruction_id) REFERENCES tspr_instruction(instruction_id);


--
-- Name: r_301; Type: FK CONSTRAINT; Schema: public; Owner: ekergy
--

ALTER TABLE ONLY tspr_simproc_step
    ADD CONSTRAINT r_301 FOREIGN KEY (simproc_id) REFERENCES tspr_simproc(simproc_id);


--
-- Name: r_302; Type: FK CONSTRAINT; Schema: public; Owner: ekergy
--

ALTER TABLE ONLY tspr_simproc_step
    ADD CONSTRAINT r_302 FOREIGN KEY (step_id) REFERENCES tspr_step(step_id);


--
-- Name: r_309; Type: FK CONSTRAINT; Schema: public; Owner: ekergy
--

ALTER TABLE ONLY tspr_operator
    ADD CONSTRAINT r_309 FOREIGN KEY (skill_id) REFERENCES tspr_skill_type(skill_id);


--
-- Name: r_310; Type: FK CONSTRAINT; Schema: public; Owner: ekergy
--

ALTER TABLE ONLY tspr_operator
    ADD CONSTRAINT r_310 FOREIGN KEY (simproc_id) REFERENCES tspr_simproc(simproc_id);


--
-- Name: r_311; Type: FK CONSTRAINT; Schema: public; Owner: ekergy
--

ALTER TABLE ONLY tspr_operator_stack
    ADD CONSTRAINT r_311 FOREIGN KEY (operator_id) REFERENCES tspr_operator(operator_id);


--
-- Name: r_312; Type: FK CONSTRAINT; Schema: public; Owner: ekergy
--

ALTER TABLE ONLY tspr_operator_stack
    ADD CONSTRAINT r_312 FOREIGN KEY (item_id) REFERENCES tspr_item(item_id);


--
-- Name: public; Type: ACL; Schema: -; Owner: postgres
--

REVOKE ALL ON SCHEMA public FROM PUBLIC;
REVOKE ALL ON SCHEMA public FROM postgres;
GRANT ALL ON SCHEMA public TO postgres;
GRANT ALL ON SCHEMA public TO PUBLIC;


--
-- PostgreSQL database dump complete
--

