\relax 
\@writefile{toc}{\contentsline {chapter}{\numberline {1}Risk Assessment}{3}}
\@writefile{lof}{\addvspace {10\p@ }}
\@writefile{lot}{\addvspace {10\p@ }}
\newlabel{chap:ratool}{{1}{3}}
\@writefile{toc}{\contentsline {section}{\numberline {1.1}Risk Assessment Tool}{3}}
\newlabel{sec:ratool}{{1.1}{3}}
\@writefile{toc}{\contentsline {subsection}{\numberline {1.1.1}PSA issues at stake and general methodology description}{3}}
\@writefile{toc}{\contentsline {section}{\numberline {1.2}Software Components}{5}}
\@writefile{toc}{\contentsline {subsection}{\numberline {1.2.1}RiskParser}{5}}
\@writefile{toc}{\contentsline {subsection}{\numberline {1.2.2}RiskAssessment data base}{5}}
\@writefile{toc}{\contentsline {subsubsection}{Tables}{5}}
\@writefile{toc}{\contentsline {subsubsection}{Procedures}{6}}
\@writefile{toc}{\contentsline {subsection}{\numberline {1.2.3}Utils}{7}}
\@writefile{toc}{\contentsline {subsection}{\numberline {1.2.4}RiskAssessment Program}{7}}
\@writefile{toc}{\contentsline {subsubsection}{Main program flow}{9}}
\@writefile{toc}{\contentsline {section}{\numberline {1.3}Software Testing}{10}}
\@writefile{toc}{\contentsline {section}{\numberline {1.4}Managing RiskAssessment Tool}{10}}
\@writefile{toc}{\contentsline {section}{\numberline {1.5}Performing Simulations}{10}}
\@writefile{lof}{\contentsline {figure}{\numberline {1.1}{\ignorespaces \relax \fontsize  {10}{12}\selectfont  \abovedisplayskip 10\p@ plus2\p@ minus5\p@ \abovedisplayshortskip \z@ plus3\p@ \belowdisplayshortskip 6\p@ plus3\p@ minus3\p@ \def \leftmargin \leftmargini \parsep 4.5\p@ plus2\p@ minus\p@ \topsep 9\p@ plus3\p@ minus5\p@ \itemsep 4.5\p@ plus2\p@ minus\p@ {\leftmargin \leftmargini \topsep 6\p@ plus2\p@ minus2\p@ \parsep 3\p@ plus2\p@ minus\p@ \itemsep \parsep }\belowdisplayskip \abovedisplayskip Risk Assessment File.}}{10}}
\newlabel{fig:riskassess}{{1.1}{10}}
\@writefile{toc}{\contentsline {subsection}{\numberline {1.5.1}SARNET}{11}}
\@writefile{lof}{\contentsline {figure}{\numberline {1.2}{\ignorespaces \relax \fontsize  {10}{12}\selectfont  \abovedisplayskip 10\p@ plus2\p@ minus5\p@ \abovedisplayshortskip \z@ plus3\p@ \belowdisplayshortskip 6\p@ plus3\p@ minus3\p@ \def \leftmargin \leftmargini \parsep 4.5\p@ plus2\p@ minus\p@ \topsep 9\p@ plus3\p@ minus5\p@ \itemsep 4.5\p@ plus2\p@ minus\p@ {\leftmargin \leftmargini \topsep 6\p@ plus2\p@ minus2\p@ \parsep 3\p@ plus2\p@ minus\p@ \itemsep \parsep }\belowdisplayskip \abovedisplayskip Hydrogen flow rate comparison SARNET (left) SCAIS (right).}}{11}}
\newlabel{fig:H2flowratecomparison}{{1.2}{11}}
\@writefile{lof}{\contentsline {figure}{\numberline {1.3}{\ignorespaces \relax \fontsize  {10}{12}\selectfont  \abovedisplayskip 10\p@ plus2\p@ minus5\p@ \abovedisplayshortskip \z@ plus3\p@ \belowdisplayshortskip 6\p@ plus3\p@ minus3\p@ \def \leftmargin \leftmargini \parsep 4.5\p@ plus2\p@ minus\p@ \topsep 9\p@ plus3\p@ minus5\p@ \itemsep 4.5\p@ plus2\p@ minus\p@ {\leftmargin \leftmargini \topsep 6\p@ plus2\p@ minus2\p@ \parsep 3\p@ plus2\p@ minus\p@ \itemsep \parsep }\belowdisplayskip \abovedisplayskip Hydrogen production (cumulated mas) comparison SARNET (left) SCAIS (right)}}{12}}
\newlabel{fig:H2production}{{1.3}{12}}
\@writefile{lof}{\contentsline {figure}{\numberline {1.4}{\ignorespaces \relax \fontsize  {10}{12}\selectfont  \abovedisplayskip 10\p@ plus2\p@ minus5\p@ \abovedisplayshortskip \z@ plus3\p@ \belowdisplayshortskip 6\p@ plus3\p@ minus3\p@ \def \leftmargin \leftmargini \parsep 4.5\p@ plus2\p@ minus\p@ \topsep 9\p@ plus3\p@ minus5\p@ \itemsep 4.5\p@ plus2\p@ minus\p@ {\leftmargin \leftmargini \topsep 6\p@ plus2\p@ minus2\p@ \parsep 3\p@ plus2\p@ minus\p@ \itemsep \parsep }\belowdisplayskip \abovedisplayskip Evolution of steam number of moles in the containment after spray system activation comparison SARNET (left) SCAIS (right).}}{12}}
\newlabel{fig:containmentsteammoles}{{1.4}{12}}
\@writefile{lof}{\contentsline {figure}{\numberline {1.5}{\ignorespaces \relax \fontsize  {10}{12}\selectfont  \abovedisplayskip 10\p@ plus2\p@ minus5\p@ \abovedisplayshortskip \z@ plus3\p@ \belowdisplayshortskip 6\p@ plus3\p@ minus3\p@ \def \leftmargin \leftmargini \parsep 4.5\p@ plus2\p@ minus\p@ \topsep 9\p@ plus3\p@ minus5\p@ \itemsep 4.5\p@ plus2\p@ minus\p@ {\leftmargin \leftmargini \topsep 6\p@ plus2\p@ minus2\p@ \parsep 3\p@ plus2\p@ minus\p@ \itemsep \parsep }\belowdisplayskip \abovedisplayskip Xml parser file to SARNET sample calculations.}}{13}}
\newlabel{fig:PathParser12345}{{1.5}{13}}
\@writefile{lof}{\contentsline {figure}{\numberline {1.6}{\ignorespaces \relax \fontsize  {10}{12}\selectfont  \abovedisplayskip 10\p@ plus2\p@ minus5\p@ \abovedisplayshortskip \z@ plus3\p@ \belowdisplayshortskip 6\p@ plus3\p@ minus3\p@ \def \leftmargin \leftmargini \parsep 4.5\p@ plus2\p@ minus\p@ \topsep 9\p@ plus3\p@ minus5\p@ \itemsep 4.5\p@ plus2\p@ minus\p@ {\leftmargin \leftmargini \topsep 6\p@ plus2\p@ minus2\p@ \parsep 3\p@ plus2\p@ minus\p@ \itemsep \parsep }\belowdisplayskip \abovedisplayskip Dynamic variables comparison. This values are needed to calculate the transition rate.}}{14}}
\newlabel{fig:dynvaluescomparison}{{1.6}{14}}
\@writefile{lof}{\contentsline {figure}{\numberline {1.7}{\ignorespaces \relax \fontsize  {10}{12}\selectfont  \abovedisplayskip 10\p@ plus2\p@ minus5\p@ \abovedisplayshortskip \z@ plus3\p@ \belowdisplayshortskip 6\p@ plus3\p@ minus3\p@ \def \leftmargin \leftmargini \parsep 4.5\p@ plus2\p@ minus\p@ \topsep 9\p@ plus3\p@ minus5\p@ \itemsep 4.5\p@ plus2\p@ minus\p@ {\leftmargin \leftmargini \topsep 6\p@ plus2\p@ minus2\p@ \parsep 3\p@ plus2\p@ minus\p@ \itemsep \parsep }\belowdisplayskip \abovedisplayskip Stimuli Transitions.}}{15}}
\newlabel{fig:SARNETstimululitrans}{{1.7}{15}}
\@writefile{lof}{\contentsline {figure}{\numberline {1.8}{\ignorespaces \relax \fontsize  {10}{12}\selectfont  \abovedisplayskip 10\p@ plus2\p@ minus5\p@ \abovedisplayshortskip \z@ plus3\p@ \belowdisplayshortskip 6\p@ plus3\p@ minus3\p@ \def \leftmargin \leftmargini \parsep 4.5\p@ plus2\p@ minus\p@ \topsep 9\p@ plus3\p@ minus5\p@ \itemsep 4.5\p@ plus2\p@ minus\p@ {\leftmargin \leftmargini \topsep 6\p@ plus2\p@ minus2\p@ \parsep 3\p@ plus2\p@ minus\p@ \itemsep \parsep }\belowdisplayskip \abovedisplayskip Dynamic Transitions.}}{15}}
\newlabel{fig:SARNETdynamictrans}{{1.8}{15}}
\@writefile{lof}{\contentsline {figure}{\numberline {1.9}{\ignorespaces \relax \fontsize  {10}{12}\selectfont  \abovedisplayskip 10\p@ plus2\p@ minus5\p@ \abovedisplayshortskip \z@ plus3\p@ \belowdisplayshortskip 6\p@ plus3\p@ minus3\p@ \def \leftmargin \leftmargini \parsep 4.5\p@ plus2\p@ minus\p@ \topsep 9\p@ plus3\p@ minus5\p@ \itemsep 4.5\p@ plus2\p@ minus\p@ {\leftmargin \leftmargini \topsep 6\p@ plus2\p@ minus2\p@ \parsep 3\p@ plus2\p@ minus\p@ \itemsep \parsep }\belowdisplayskip \abovedisplayskip Results of frequency exceedance to SARNET comparison.}}{15}}
\newlabel{fig:SARNETpathresults}{{1.9}{15}}
\@writefile{toc}{\contentsline {subsection}{\numberline {1.5.2}SM2A}{16}}
\@writefile{lof}{\contentsline {figure}{\numberline {1.10}{\ignorespaces \relax \fontsize  {10}{12}\selectfont  \abovedisplayskip 10\p@ plus2\p@ minus5\p@ \abovedisplayshortskip \z@ plus3\p@ \belowdisplayshortskip 6\p@ plus3\p@ minus3\p@ \def \leftmargin \leftmargini \parsep 4.5\p@ plus2\p@ minus\p@ \topsep 9\p@ plus3\p@ minus5\p@ \itemsep 4.5\p@ plus2\p@ minus\p@ {\leftmargin \leftmargini \topsep 6\p@ plus2\p@ minus2\p@ \parsep 3\p@ plus2\p@ minus\p@ \itemsep \parsep }\belowdisplayskip \abovedisplayskip Xml parser file to SM2A sample calculations.}}{17}}
\newlabel{fig:RAparserSM2A}{{1.10}{17}}
\@writefile{toc}{\contentsline {paragraph}{}{17}}
\@writefile{lof}{\contentsline {figure}{\numberline {1.11}{\ignorespaces \relax \fontsize  {10}{12}\selectfont  \abovedisplayskip 10\p@ plus2\p@ minus5\p@ \abovedisplayshortskip \z@ plus3\p@ \belowdisplayshortskip 6\p@ plus3\p@ minus3\p@ \def \leftmargin \leftmargini \parsep 4.5\p@ plus2\p@ minus\p@ \topsep 9\p@ plus3\p@ minus5\p@ \itemsep 4.5\p@ plus2\p@ minus\p@ {\leftmargin \leftmargini \topsep 6\p@ plus2\p@ minus2\p@ \parsep 3\p@ plus2\p@ minus\p@ \itemsep \parsep }\belowdisplayskip \abovedisplayskip Stimuli Transitions.}}{18}}
\newlabel{fig:SM2Astimtransitions}{{1.11}{18}}
\@writefile{lof}{\contentsline {figure}{\numberline {1.12}{\ignorespaces \relax \fontsize  {10}{12}\selectfont  \abovedisplayskip 10\p@ plus2\p@ minus5\p@ \abovedisplayshortskip \z@ plus3\p@ \belowdisplayshortskip 6\p@ plus3\p@ minus3\p@ \def \leftmargin \leftmargini \parsep 4.5\p@ plus2\p@ minus\p@ \topsep 9\p@ plus3\p@ minus5\p@ \itemsep 4.5\p@ plus2\p@ minus\p@ {\leftmargin \leftmargini \topsep 6\p@ plus2\p@ minus2\p@ \parsep 3\p@ plus2\p@ minus\p@ \itemsep \parsep }\belowdisplayskip \abovedisplayskip Dynamic Transitions.}}{19}}
\newlabel{fig:SM2Adyntransitions}{{1.12}{19}}
\@writefile{toc}{\contentsline {paragraph}{}{19}}
\@writefile{lof}{\contentsline {figure}{\numberline {1.13}{\ignorespaces \relax \fontsize  {10}{12}\selectfont  \abovedisplayskip 10\p@ plus2\p@ minus5\p@ \abovedisplayshortskip \z@ plus3\p@ \belowdisplayshortskip 6\p@ plus3\p@ minus3\p@ \def \leftmargin \leftmargini \parsep 4.5\p@ plus2\p@ minus\p@ \topsep 9\p@ plus3\p@ minus5\p@ \itemsep 4.5\p@ plus2\p@ minus\p@ {\leftmargin \leftmargini \topsep 6\p@ plus2\p@ minus2\p@ \parsep 3\p@ plus2\p@ minus\p@ \itemsep \parsep }\belowdisplayskip \abovedisplayskip Comparison between SM2A tailor made and Risk Assessment program results.}}{20}}
\newlabel{fig:SM2Apathresults}{{1.13}{20}}
\@writefile{toc}{\contentsline {section}{\numberline {1.6}Conclusions}{21}}
\@writefile{toc}{\contentsline {paragraph}{}{21}}
\@writefile{toc}{\contentsline {section}{\numberline {1.7}References}{21}}
